Nairn   there is a site change in 1998
Location before 1998 286900E 856800N 8m amsl  
after 1998 291200E 857300N, Lat 57.593 Lon -3.821, 23 m amsl
Estimated data is marked with a * after the value.
Missing data (more than 2 days missing in month) is marked by  ---.
Sunshine data taken from an automatic Kipp & Zonen sensor marked with a #, otherwise sunshine data taken from a Campbell Stokes recorder.
   yyyy  mm   tmax    tmin      af    rain     sun
              degC    degC    days      mm   hours
   1931   1    5.0     0.6      11    78.4    43.4
   1931   2    6.7     0.7       7    48.9    63.6
   1931   3    6.2    -1.5      19    37.6   145.4
   1931   4   10.4     3.1       3    44.6   110.1
   1931   5   13.2     6.1       1    63.7   167.4
   1931   6   15.4     8.0       0    87.8   150.3
   1931   7   17.3    10.6       0   121.4   111.2
   1931   8   15.6     9.1       0    57.2   127.5
   1931   9   15.0     8.4       0    38.1   122.3
   1931  10   12.1     5.5       2    59.4    95.8
   1931  11   10.3     3.9       3    43.7    61.5
   1931  12    8.9     3.2       7    33.6    36.5
   1932   1    9.8     2.9       3    76.1    82.4
   1932   2    7.7     2.3       6    14.4    63.7
   1932   3    7.7     1.6       9    66.1    69.2
   1932   4    9.1     1.9       6    80.0   110.5
   1932   5   11.9     5.9       1    73.8   132.2
   1932   6   16.0     9.0       0     4.7   168.7
   1932   7   17.9    10.4       0    73.0   124.6
   1932   8   18.2    10.7       0    53.9   140.7
   1932   9   15.0     8.0       0    66.3    84.0
   1932  10   10.4     4.6       1   128.6    65.3
   1932  11    8.7     2.2       2    73.7    68.7
   1932  12    8.1     1.9       7    50.5    44.1
   1933   1    5.8    -1.2      16    33.9    62.1
   1933   2    6.2     0.4      10    56.0    47.0
   1933   3   11.1     2.6       4    17.4   114.7
   1933   4   11.8     4.6       1    53.4   109.0
   1933   5   13.5     6.1       1    47.1   125.3
   1933   6   18.6     9.5       0    49.1   191.0
   1933   7   21.6    11.8       0    56.4   155.2
   1933   8   19.9    12.0       0    49.9   170.7
   1933   9   16.8     9.3       0    19.8   129.2
   1933  10   12.6     6.9       0    84.5    49.2
   1933  11    8.6     2.8       5    24.9    55.4
   1933  12    6.5     0.9      12     9.8    46.1
   1934   1    8.3     2.8       0    49.8    42.1
   1934   2    9.5     4.2       2    16.5    61.8
   1934   3    8.0     0.8       7    67.6   126.5
   1934   4    9.5     3.8       1   108.5   111.9
   1934   5   14.3     5.7       0    53.8   150.5
   1934   6   16.7     8.6       0    36.3   226.4
   1934   7   18.9    11.4       0   109.8   162.6
   1934   8   18.0    10.3       0    48.1   114.6
   1934   9   17.8     8.3       0    32.2   167.0
   1934  10   12.5     5.6       3    72.9    94.9
   1934  11    8.5     2.8       6    22.3    49.7
   1934  12    9.1     3.5       0    55.4    37.1
   1935   1    7.7     2.6       8    32.3    30.2
   1935   2    7.5     1.3       6    55.9    70.5
   1935   3   10.4     1.9       9    39.3   150.5
   1935   4    9.6     3.0       5    62.8   109.5
   1935   5   11.6     3.8       1    38.8   193.8
   1935   6   16.3     9.0       0    75.1   151.1
   1935   7   19.6    10.4       0    37.4   219.5
   1935   8   19.3    11.0       0    79.4   132.0
   1935   9   15.2     8.1       0    99.3   122.7
   1935  10   10.9     5.1       0   129.5    60.9
   1935  11    8.5     1.5       4    68.6    70.8
   1935  12    4.5    -0.9      16    39.9    41.3
   1936   1    4.5    -0.6      18    66.7    50.4
   1936   2    5.8    -1.3      13    33.4    73.5
   1936   3    9.6     2.8       5    22.8    77.4
   1936   4    9.8     2.1       6    20.0   167.7
   1936   5   13.7     6.2       1    31.0   152.1
   1936   6   18.2     8.0       0    27.6   231.6
   1936   7   18.1    11.0       0   117.8   150.3
   1936   8   19.0    10.7       0    55.3   156.7
   1936   9   16.3     9.4       0    56.9   117.1
   1936  10   12.3     4.7       3    58.9   106.3
   1936  11    8.5     1.9       5    36.1    54.4
   1936  12    7.8     1.9       6    64.7    44.0
   1937   1    7.4     1.8       7    67.8    45.2
   1937   2    5.9     0.5       7    52.4    71.7
   1937   3    5.0    -0.4      13    34.8    98.6
   1937   4   11.9     4.5       2    16.6   100.2
   1937   5   15.2     6.2       1    28.2   226.8
   1937   6   16.4     9.3       0    54.0   162.0
   1937   7   17.9    10.5       0    80.6   114.7
   1937   8   18.0    10.3       0   132.2   154.6
   1937   9   16.0     8.6       0    31.6   125.7
   1937  10   12.4     6.1       1    61.4   105.8
   1937  11    8.4     2.7       8    18.0    42.2
   1937  12    4.9    -0.8      17    40.8    30.4
   1938   1    7.6     2.7       2    63.8    32.5
   1938   2    7.8     1.7       5    28.3    52.2
   1938   3   12.8     6.0       1    26.3   107.4
   1938   4   11.3     4.3       3    14.3   113.8
   1938   5   13.0     5.4       3    56.6   140.3
   1938   6   16.2     8.8       0    83.5   155.1
   1938   7   17.2    10.2       0   122.3   100.2
   1938   8   17.7     9.8       0    38.0   187.3
   1938   9   16.0     8.0       0    98.9   113.8
   1938  10   12.7     6.5       0    98.6   104.1
   1938  11   10.1     4.2       4    83.3    58.2
   1938  12    6.6     1.1      10    29.0    42.3
   1939   1    4.9    -0.6      16    75.9    40.4
   1939   2    8.7     2.7       5    41.8    61.6
   1939   3    9.2     2.7       2    41.7   123.9
   1939   4   11.0     3.5       3    29.4   143.6
   1939   5   14.4     6.7       0    19.0   178.5
   1939   6   17.6     8.5       0    42.2   169.7
   1939   7   16.5    10.7       0   148.1    75.5
   1939   8   17.8    10.9       0    33.9   162.3
   1939   9   16.5     9.4       0    34.3   120.2
   1939  10   10.9     4.2       4    69.7   121.1
   1939  11    9.6     3.8       1    59.8    55.3
   1939  12    6.4     1.6       8    53.2    26.1
   1940   1    3.0    -2.8      22    19.7    55.3
   1940   2    5.9    -0.5      14    20.2    83.6
   1940   3    8.4     2.1       6    54.9   113.7
   1940   4   10.4     3.5       2    45.7   134.9
   1940   5   15.3     7.4       0    42.5   189.5
   1940   6   19.7     9.7       0    15.4   249.1
   1940   7   16.0    10.4       0   215.2    99.0
   1940   8   17.6    10.4       0    38.1   132.7
   1940   9   14.5     7.9       0    42.2   104.7
   1940  10   12.1     6.4       1    82.1    88.3
   1940  11    8.6     3.2       3   108.0    47.5
   1940  12    6.2     1.5       7    60.2    28.5
   1941   1    2.7    -2.7      18    26.2    55.6
   1941   2    5.0    -0.3      13    48.2    47.7
   1941   3    6.2     0.0      14    48.2   121.8
   1941   4    8.4     2.5       5    24.8    99.8
   1941   5   11.5     5.2       2    65.2   151.0
   1941   6   16.8     9.2       0    12.2   185.5
   1941   7   18.1    11.6       0    60.0   118.4
   1941   8   16.7     9.7       0   153.5   105.6
   1941   9   17.4    10.2       0    22.1   123.3
   1941  10   12.3     6.2       2   101.6    86.6
   1941  11    8.7     2.4       6    57.3    40.6
   1941  12    8.4     3.2       5    57.8    33.8
   1942   1    5.0    -0.2      15    54.4    37.9
   1942   2    4.7    -0.9      16    46.9    73.9
   1942   3    7.8     1.0      10    17.7   104.7
   1942   4   12.7     2.7       4    43.4   233.8
   1942   5   13.6     4.7       5    70.8   210.0
   1942   6   15.5     8.5       0    24.6   129.5
   1942   7   18.1    10.3       0    78.0   151.7
   1942   8   17.2    11.7       0    84.4    83.1
   1942   9   15.2     8.5       0    92.4   117.7
   1942  10   11.9     6.1       0   101.1    85.9
   1942  11    8.6     3.7       3    21.1    53.0
   1942  12    9.5     3.3       4    61.0    32.9
   1943   1    6.5     0.6      12    27.2    55.2
   1943   2    9.2     3.5       1    54.5    65.4
   1943   3   10.0     3.4       2    39.6   135.3
   1943   4   12.6     5.6       0    35.0   140.0
   1943   5   14.0     6.2       0    87.3   190.0
   1943   6   16.4     8.5       0    45.4   170.1
   1943   7   16.6     9.6       0    42.9   180.5
   1943   8   16.4     9.7       0    98.8   106.4
   1943   9   15.5     8.1       0    56.3   116.3
   1943  10   13.8     7.4       0    61.0    73.9
   1943  11    8.6     4.0       1    56.1    33.1
   1943  12    7.1     1.3       9    14.2    50.1
   1944   1    8.2     2.7       4    63.0    46.8
   1944   2    6.7     1.7       7    44.9    53.1
   1944   3    8.2     2.7       7    30.4    80.2
   1944   4   12.3     5.6       1    42.7   118.8
   1944   5   12.5     7.0       0    45.2    92.3
   1944   6   15.2     8.4       0    81.0   136.9
   1944   7   17.5    11.8       0    30.9   113.2
   1944   8   19.0    11.4       0    40.7   177.0
   1944   9   14.8     7.4       0    70.2   126.3
   1944  10   11.5     5.5       0    76.3    82.4
   1944  11    7.0     1.0       7    91.1    48.9
   1944  12    6.8     1.4       7    64.2    31.7
   1945   1    3.2    -3.0      21    65.6    45.4
   1945   2    9.2     2.9       7    43.4    97.5
   1945   3   11.9     5.0       0    18.0    99.3
   1945   4   12.1     4.5       0    31.5   152.8
   1945   5   13.6     5.7       1    62.4   192.6
   1945   6   16.9     8.6       0    71.0   175.0
   1945   7   19.5    12.1       0    57.3   121.1
   1945   8   17.9    11.1       0    73.0   159.0
   1945   9   16.8    10.0       0    47.7   101.9
   1945  10   14.4     7.4       0    83.3    98.9
   1945  11    9.8     3.5       7     5.0    57.4
   1945  12    7.9     2.9       7    56.5    28.9
   1946   1    6.7    -0.3      14    22.1    66.2
   1946   2    8.0     1.8       5    39.6    78.8
   1946   3    8.9     1.8      10    19.6    87.0
   1946   4   12.6     4.6       0    23.1   142.2
   1946   5   13.8     5.1       0    41.2   223.5
   1946   6   16.3     8.2       0    64.4   139.0
   1946   7   17.9    10.9       0   130.7   116.2
   1946   8   16.8     8.8       0    78.4   133.4
   1946   9   16.2     9.5       0    89.0   120.6
   1946  10   12.0     3.7       5     5.6   107.0
   1946  11    9.9     2.9       5    73.5    40.6
   1946  12    6.4    -0.4      15    20.5    41.3
   1947   1    5.5    -0.6      14    19.8    58.2
   1947   2    2.2    -4.3      26    16.4    83.5
   1947   3    4.7    -1.8      16    29.9   123.9
   1947   4   11.2     3.7       4    36.7   125.6
   1947   5   14.8     6.8       0    38.6   155.7
   1947   6   16.9     9.7       0    77.8   109.9
   1947   7   18.9    11.2       0    46.3   183.8
   1947   8   20.2    11.1       0     8.2   242.8
   1947   9   16.3     8.9       0    82.9   104.0
   1947  10   13.8     6.4       2    29.5   109.8
   1947  11    8.3     2.8       6    98.0    42.3
   1947  12    6.6     2.0       9    36.4    29.6
   1948   1    4.8    -1.0      17    53.3    48.5
   1948   2    7.0     1.2       8    45.3    68.5
   1948   3   12.1     2.9       7    27.5   159.1
   1948   4   12.1     3.8       5    60.4   160.5
   1948   5   13.3     4.9       2    60.4   211.2
   1948   6   15.2     8.7       0   102.3   145.4
   1948   7   17.0    10.8       0    62.6   137.4
   1948   8   15.9     9.8       0   121.3    66.6
   1948   9   15.7     8.6       1    61.1   136.1
   1948  10   11.8     5.2       5    59.4   115.6
   1948  11   10.9     3.3       6    44.3    58.5
   1948  12    8.0     2.8       5    46.5    43.0
   1949   1    8.0     1.8       7    72.9    37.2
   1949   2    8.7     2.0       5    32.0    99.5
   1949   3    7.9     1.4      10    48.9   107.2
   1949   4   12.9     4.6       1    53.2   166.1
   1949   5   14.1     5.7       0    44.4   188.9
   1949   6   15.7     7.3       0    27.8   227.5
   1949   7   18.7    11.2       0    45.3   132.9
   1949   8   18.0    11.0       0   114.8   103.6
   1949   9   17.7     9.6       0    25.8   142.9
   1949  10   13.9     7.3       4    46.0    80.7
   1949  11    9.5     3.4       4    65.9    53.9
   1949  12    6.6     1.0       8   118.2    30.3
   1950   1    7.6     2.5       9    46.3    66.0
   1950   2    6.5     0.2      11    46.3    99.0
   1950   3   10.6     3.9       4    30.6   104.9
   1950   4   10.1     2.6       4    67.9   134.0
   1950   5   12.2     5.8       1    55.2   167.0
   1950   6   18.3     9.9       0    48.6   154.5
   1950   7   18.7    10.4       0    55.3   169.1
   1950   8   18.3    10.4       0    50.3   175.5
   1950   9   14.6     8.2       0   106.2   101.4
   1950  10   12.1     5.1       4    28.3   124.6
   1950  11    7.1     1.7       6    82.0    59.2
   1950  12    3.9    -0.9      17    46.8    15.6
   1951   1    5.1    -0.3      15    57.6    55.9
   1951   2    5.5    -0.1      14    49.0    55.5
   1951   3    6.5     0.5      13    36.7    97.7
   1951   4    8.3     1.7       5    86.1   137.3
   1951   5   11.9     4.9       0    15.0   186.6
   1951   6   14.6     7.4       0    42.4   193.7
   1951   7   18.4    10.8       0    75.0   169.1
   1951   8   16.6     9.9       0   103.5   113.2
   1951   9   16.5     8.5       0    16.0   146.3
   1951  10   13.7     6.7       0    34.1   112.3
   1951  11    9.7     4.6       0    91.1    43.4
   1951  12    7.5     1.9       6    75.9    41.0
   1952   1    4.2    -2.4      22    44.0    59.6
   1952   2    6.6     1.5      10    27.1    63.3
   1952   3    9.4     2.4       8    35.2   112.5
   1952   4   12.3     4.8       0    17.1   171.7
   1952   5   15.1     7.6       0    35.0   157.9
   1952   6   15.6     8.5       0    41.9   136.6
   1952   7   19.1    10.8       0    44.3   178.3
   1952   8   17.2    10.8       0    90.1   109.7
   1952   9   12.7     7.4       0    38.1    86.3
   1952  10   11.4     4.8       4    39.0   103.0
   1952  11    6.1     1.1      11    65.0    51.6
   1952  12    6.0     1.0      11    51.1    40.0
   1953   1    7.2     2.6       6    26.9    40.0
   1953   2    8.6     3.0       6    36.1    62.9
   1953   3   10.5     2.6       7    23.2   164.7
   1953   4   10.1     2.0       5    52.3   164.9
   1953   5   14.6     6.7       0    78.1   169.4
   1953   6   15.7     9.7       0    65.0   119.8
   1953   7   16.8    10.7       0   103.0    81.8
   1953   8   18.0    10.4       0    69.2   133.2
   1953   9   17.1     9.7       0    52.7   130.7
   1953  10   13.3     7.4       0    20.5   104.2
   1953  11   10.5     5.2       0    57.8    65.8
   1953  12    7.8     2.3       6    54.8    52.0
   1954   1    6.2     1.5       7    34.4    34.3
   1954   2    5.4    -0.6      11    24.0    78.2
   1954   3    8.2     0.6      12    29.2   135.0
   1954   4   11.8     2.5       7    21.9   198.4
   1954   5   13.5     6.9       0    83.6   133.0
   1954   6   15.5     8.6       0    55.4   144.8
   1954   7   16.7     9.9       0    76.2   107.6
   1954   8   16.0    10.4       0    56.5    87.4
   1954   9   14.6     7.4       0    55.0   125.0
   1954  10   12.8     6.6       0   139.2    88.7
   1954  11    8.8     2.8       3    43.8    48.0
   1954  12    8.2     2.7       7    92.4    32.0
   1955   1    4.6    -1.5      19    31.6    61.1
   1955   2    3.1    -3.8      19    48.9    87.2
   1955   3    6.6     1.1       9    20.4   101.2
   1955   4   12.7     3.9       3    27.3   172.1
   1955   5   12.0     4.8       0    52.6   197.0
   1955   6   16.9     8.4       0    26.4   208.9
   1955   7   19.9    11.1       0    15.1   226.0
   1955   8   20.2    12.3       0    10.2   152.0
   1955   9   17.4    10.0       0    42.6   139.7
   1955  10   11.6     5.8       3    92.2    78.6
   1955  11   10.2     4.7       3    14.1    61.3
   1955  12    6.4     1.1       8   114.5    37.6
   1956   1    5.3     0.0      14    35.0    49.5
   1956   2    5.0    -0.6      15    35.8    58.6
   1956   3    9.8     1.9       8    19.0   136.5
   1956   4   10.2     1.8      10    49.6   168.3
   1956   5   15.3     7.6       0    26.1   161.7
   1956   6   15.3     7.8       0    61.0   176.9
   1956   7   17.0    10.3       0   118.5   141.7
   1956   8   14.9     9.2       0   111.9   123.6
   1956   9   15.4     9.3       0    75.3   103.8
   1956  10   12.1     6.5       0    69.5    95.5
   1956  11    9.7     4.2       1    37.1    42.0
   1956  12    8.6     3.2       2    66.8    34.5
   1957   1    8.0     1.9       5    58.1    47.7
   1957   2    6.3     0.4       9    38.6    84.3
   1957   3   11.2     4.9       0    84.2    78.7
   1957   4   12.0     4.6       2    14.3   164.8
   1957   5   13.4     5.3       1    21.3   178.5
   1957   6   17.3     8.7       0    50.6   217.6
   1957   7   16.3    11.2       0   132.9    80.9
   1957   8   16.4    10.4       0   115.7    98.8
   1957   9   13.8     7.9       0    32.9   105.0
   1957  10   12.9     6.8       0    39.0    65.1
   1957  11    8.9     3.6       5    40.0    26.1
   1957  12    7.2     1.5       7    65.0    48.4
   1958   1    6.0    -0.7      14    64.7    38.4
   1958   2    5.8    -0.2      11    69.4    42.0
   1958   3    5.7    -0.7      15    22.3   108.9
   1958   4   10.5     3.3       4    38.5   137.3
   1958   5   13.1     4.7       0    67.9   208.9
   1958   6   15.7     9.4       0    58.1   125.4
   1958   7   ---     11.0       0    69.6   154.3
   1958   8   17.1    10.7       0   104.0   113.2
   1958   9   16.9     9.9       0    65.6   137.4
   1958  10   12.6     7.4       0    50.5   112.2
   1958  11   10.0     2.6       6    24.8    78.0
   1958  12    6.1     0.7      11    43.6    35.6
   1959   1    3.4    -1.6      21    57.5    46.3
   1959   2    8.1    -0.6      14    13.7   114.9
   1959   3   10.4     1.9       8    31.8   117.6
   1959   4   11.8     4.1       0    68.6   131.0
   1959   5   14.9     6.4       2    14.9   162.6
   1959   6   18.3     8.9       0    53.0   194.2
   1959   7   19.3    11.4       0    62.3   141.1
   1959   8   19.7    12.1       0    25.3   128.2
   1959   9   18.0     8.5       0    16.6   167.3
   1959  10   15.5     6.7       0    71.1   131.3
   1959  11    9.7     2.6       2    70.6    62.4
   1959  12    6.9     0.3      14    35.9    30.5
   1960   1    5.7    -0.6      13    69.5    45.7
   1960   2    5.7    -1.8      19    41.9   103.4
   1960   3    9.6     0.5      13    18.7   106.9
   1960   4   12.7     3.4       4    33.0   129.4
   1960   5   16.7     4.6       3     7.9   190.9
   1960   6   18.4     8.1       0    78.5   167.9
   1960   7   18.1    ---     ---     55.8   162.3
   1960   8   17.0    ---     ---    162.9   111.0
   1960   9   15.7    ---     ---     58.0   150.5
   1960  10   11.6    ---     ---     52.5    34.9
   1960  11    8.3    ---     ---     44.8    62.6
   1960  12    5.1    ---     ---     33.7    54.4
   1961   1    5.2    -1.0      16    50.9    51.0
   1961   2    8.9     2.0       5    43.7    93.8
   1961   3   12.2     4.9       2    29.1   115.5
   1961   4   11.8     4.1       5    21.7   140.9
   1961   5   13.6     5.2       1    23.3   182.1
   1961   6   16.9     8.8       0    45.5   169.5
   1961   7   16.9    10.3       0    51.2    96.2
   1961   8   17.7     9.9       0    68.2   147.2
   1961   9   17.2     8.8       0    52.4   143.0
   1961  10   12.9     6.0       1    77.1    88.9
   1961  11    7.5     1.4       9    52.5    66.8
   1961  12    4.5    -2.0      21    72.5    35.1
   1962   1    6.6     1.0       6    62.5    67.6
   1962   2    7.7     0.3      10    41.7    78.3
   1962   3    5.2    -0.6      15    29.4   100.4
   1962   4   10.3     1.9       7    25.3   202.1
   1962   5   12.2     5.7       0    70.8   151.5
   1962   6   17.5     8.7       0    19.9   175.3
   1962   7   16.4     8.8       0    40.1   158.0
   1962   8   16.1     9.0       0   115.5   154.1
   1962   9   14.3     7.7       0    38.9    73.8
   1962  10   13.5     7.6       0    20.7    87.6
   1962  11    7.6     2.3      10    53.0    38.3
   1962  12    6.3     0.9       7    76.2    32.3
   1963   1    2.4    -3.4      20    22.9    48.5
   1963   2    3.6    -3.5      23    16.4    94.1
   1963   3   10.1     1.9       6    27.2   141.7
   1963   4   11.6     3.2       7    25.5   159.9
   1963   5   12.9     4.1       1    31.2   177.3
   1963   6   16.8     7.8       0    71.3   147.4
   1963   7   17.4     8.7       0    50.7   165.4
   1963   8   15.8     8.9       0   151.6    72.6
   1963   9   15.4     7.9       0    49.4   129.9
   1963  10   13.2     6.2       0    48.9    85.6
   1963  11    7.9     1.6      12   116.5    46.3
   1963  12    6.1     0.4      11    15.2    35.5
   1964   1    7.7     0.8      10    25.6    56.5
   1964   2    7.8    -0.1      12    22.0    89.1
   1964   3    7.9     0.8       7    27.7   100.5
   1964   4   11.6     3.7       3    48.9   128.7
   1964   5   14.2     6.8       0    32.6   132.1
   1964   6   16.0     6.8       1    55.0   179.8
   1964   7   18.0    10.2       0    25.9   188.2
   1964   8   ---     ---        0   103.0    ---
   1964   9   15.5     7.2       0    64.6   110.9
   1964  10   12.7     4.0       0    48.4    80.6
   1964  11    9.4     3.2       5    59.4    50.2
   1964  12    5.9     0.1      12    46.6    ---
   1965   1    4.9    -0.7      14    57.3    33.2
   1965   2    6.2     1.5       6    21.7    27.3
   1965   3    8.2     0.2      17    22.0   108.2
   1965   4   11.3     2.4       4    44.1   181.5
   1965   5   12.6     6.1       0    57.3    94.5
   1965   6   16.5     9.1       0    33.3   129.4
   1965   7   14.4     8.9       0   106.1   120.4
   1965   8   17.2     8.9       0    56.0   157.5
   1965   9   14.5     8.1       0   100.6    77.1
   1965  10   12.8     5.2       3    53.7   111.5
   1965  11    6.3     0.5      13    61.9    64.5
   1965  12    4.9    -0.5      14    58.3    25.8
   1966   1    5.2    -0.8      19    16.6    16.0
   1966   2    6.0    -1.4      15    51.0    75.3
   1966   3    9.4     2.8       5    52.1    90.8
   1966   4    9.2     0.8      13     8.0   162.5
   1966   5   ---     ---        0    70.9    ---
   1966   6   ---     ---        0   158.8    ---
   1966   7   ---     ---        0    71.4    ---
   1966   8   ---     ---        0    69.8    ---
   1966   9   16.0     9.7       0    37.5    90.6
   1966  10   11.5     4.9       2    83.2    66.8
   1966  11    7.0     1.3       9    63.3    36.2
   1966  12    6.3     0.4      11   113.1    24.9
   1967   1    6.8     2.1       5    73.8    28.1
   1967   2    7.9     2.5       3    42.2    68.4
   1967   3    9.1     3.1       2    78.2   107.3
   1967   4   11.0     4.0       4    27.3   141.7
   1967   5   13.0     4.8       1    27.1   168.9
   1967   6   16.9     8.4       0    19.1   221.1
   1967   7   19.2    10.7       0    24.9   134.6
   1967   8   17.2    10.3       0   107.0   116.5
   1967   9   16.3     9.1       0    50.0   106.1
   1967  10   11.9     5.5       1    67.6   104.2
   1967  11    8.8     2.8       3    44.7    58.2
   1967  12    7.2     2.2       8    42.0    32.2
   1968   1    6.0     0.7      11    47.5    30.2
   1968   2    4.1    -1.8      18    34.7    95.3
   1968   3    8.4     2.2       6    63.7    82.9
   1968   4   10.9     2.8       9    44.8   157.8
   1968   5   10.7     3.9       3    98.8   123.0
   1968   6   16.4     8.3       0    50.3   160.3
   1968   7   15.3    10.1       0    95.1   120.4
   1968   8   17.1    10.2       0    28.3   162.0
   1968   9   15.6     8.7       0    52.4    95.5
   1968  10   13.3     7.3       0    85.3    55.3
   1968  11    7.8     1.1      10    37.6    59.3
   1968  12    5.9    -0.3      15    42.2    32.1
   1969   1    6.6     0.9       9    47.8    26.8
   1969   2    3.4    -2.5      19    32.5    73.9
   1969   3    6.7    -1.0      16    17.5   118.2
   1969   4   10.4     1.8       6    33.6    ---
   1969   5   12.3     5.4       0    69.6   133.2
   1969   6   18.0     8.5       0    28.6   214.0
   1969   7   20.0    11.1       0    17.9   168.6
   1969   8   19.2    11.7       0    51.8   142.8
   1969   9   16.6     8.5       0    47.8   133.1
   1969  10   14.9     8.5       0    50.3    72.8
   1969  11    6.2     0.4      14    62.2    58.6
   1969  12    6.2     0.8      11    16.9    42.2
   1970   1    5.5    -0.3      14    21.4    32.2
   1970   2    4.4    -1.9      22    52.3    80.7
   1970   3    6.8     0.0      14    39.0   107.9
   1970   4    8.8     1.0      10    51.1   158.3
   1970   5   14.3     6.6       0    34.4   116.5
   1970   6   18.4     7.6       0    67.2   241.6
   1970   7   16.1     8.8       0    74.6   107.5
   1970   8   18.0    10.3       0    97.3   110.2
   1970   9   15.9     8.1       0    67.5   106.9
   1970  10   11.8     5.2       1    64.4    60.6
   1970  11    8.1     2.4       4    88.2    49.2
   1970  12    6.8     1.7       5    43.5    37.5
   1971   1    6.9     1.5       9    30.8    32.4
   1971   2    7.9     1.3       8    26.6    73.5
   1971   3    8.1     1.8       8    36.9    86.0
   1971   4   11.0     3.1       4     8.3   157.4
   1971   5   15.5     6.1       0    47.5   195.4
   1971   6   13.5     7.4       0    54.9   125.8
   1971   7   18.0    10.0       0    52.2   169.6
   1971   8   16.8     9.9       0    56.8   146.3
   1971   9   17.4     8.5       0    25.8   146.9
   1971  10   13.8     6.1       3    56.9   123.2
   1971  11    8.6     3.1       9    69.1    40.3
   1971  12    9.6     4.8       4    43.7    27.5
   1972   1    5.8     1.1       9    15.4    40.0
   1972   2    6.6    -0.5      17    34.7    69.3
   1972   3    9.4     1.2       9    14.8   124.6
   1972   4   11.2     3.9       2    33.3   135.9
   1972   5   14.3     5.9       0    19.6   124.2
   1972   6   15.5     6.8       0    51.5   172.0
   1972   7   17.7     9.6       0    22.6   217.3
   1972   8   17.5     9.2       0    52.5   137.8
   1972   9   14.6     7.4       1    13.3   116.2
   1972  10   13.8     5.9       0     7.3   121.0
   1972  11    8.3     2.0       9    48.2    53.6
   1972  12    8.1     1.2      12    34.5    ---
   1973   1    7.4     1.1      13    17.0    56.5
   1973   2    6.3    -0.1      13    44.0    ---
   1973   3    9.8     2.3       8    24.3    ---
   1973   4    8.5     2.5       6    39.6   107.8
   1973   5   13.0     5.6       0    54.2   159.3
   1973   6   18.0     8.9       0    27.7   162.1
   1973   7   18.3    10.2       0    87.1   138.6
   1973   8   18.1     9.8       0    62.7   176.9
   1973   9   15.3     8.4       0    75.0   124.0
   1973  10   11.3     4.3       5    29.7   104.8
   1973  11    8.2     1.9       8    79.7    52.0
   1973  12    6.6     0.6      12    76.7    18.0
   1974   1    8.6     2.3       5    42.9    55.5
   1974   2    7.6     1.2       8    24.2    41.7
   1974   3    8.5     0.9      12    27.0   134.3
   1974   4   11.1     1.5       9    13.9   179.3
   1974   5   14.5     4.8       3    34.7   162.4
   1974   6   16.4     7.5       0    38.0   165.3
   1974   7   17.2     8.5       0    56.1   140.4
   1974   8   18.0     8.8       0    51.4   159.0
   1974   9   14.2     6.7       2    50.5   125.7
   1974  10    9.8     5.0       1    74.8    34.1
   1974  11    8.3     2.6       3    69.3    55.4
   1974  12    8.5     3.2       3    88.1    36.6
   1975   1    7.9     1.3      12    87.6    50.5
   1975   2    5.8    -0.3      16    11.5    89.6
   1975   3    7.1     0.5      13    14.8   104.0
   1975   4   10.4     3.4       4    40.1   120.0
   1975   5   11.4     5.0       0    45.2   171.9
   1975   6   17.2     8.1       0    28.8   206.1
   1975   7   18.7    10.4       0    52.4   165.0
   1975   8   19.5    11.9       0    86.2   148.3
   1975   9   15.0     7.4       1    56.3   114.6
   1975  10   13.3     5.7       4    26.3   125.9
   1975  11    8.8     2.5       5    43.3    58.2
   1975  12    8.7     3.6       3    37.7    35.5
   1976   1    7.0     1.5       9    95.0    34.0
   1976   2    7.7     0.4      11    13.3    89.7
   1976   3    8.3     1.2       8    41.3   138.8
   1976   4   10.9     4.0       4    18.5   100.2
   1976   5   14.3     6.2       0    32.8   158.0
   1976   6   19.0     9.6       0    14.6   152.3
   1976   7   19.9    11.5       0    36.9   175.6
   1976   8   19.7    10.3       0    13.8   220.3
   1976   9   14.7     9.2       0    66.3    79.6
   1976  10   12.7     5.9       0    68.8    84.8
   1976  11    8.4     1.8       8    36.2    87.1
   1976  12    3.3    -2.0      25    22.3    43.2
   1977   1    4.9    -0.6      15    33.1    47.8
   1977   2    5.3    -1.5      18    40.7    86.9
   1977   3    9.4     2.7       3    22.2    90.9
   1977   4    9.5     2.2       5    70.5   145.4
   1977   5   13.7     5.2       2    59.1   217.4
   1977   6   14.9     7.4       0    57.5   153.1
   1977   7   17.8    10.1       0    44.6   155.5
   1977   8   17.8     9.2       0    47.4   176.8
   1977   9   14.8     7.6       0    54.1   105.9
   1977  10   14.1     6.7       0    25.9    80.0
   1977  11    7.5     1.4       7   100.0    54.6
   1977  12    7.7     1.3       9    16.8    41.0
   1978   1    5.2    -0.6      17    56.4    49.4
   1978   2    3.9    -3.8      19    55.2    76.9
   1978   3    9.2     1.7       7    53.5   121.4
   1978   4    8.6     2.1       8    32.7    95.1
   1978   5   14.4     6.0       1    49.3   192.1
   1978   6   15.9     8.3       1    34.9   157.8
   1978   7   16.2     9.0       0    56.6   121.7
   1978   8   16.1    10.2       0    77.4   100.4
   1978   9   14.8     8.6       0    70.5   111.5
   1978  10   13.7     7.0       0    36.6    75.3
   1978  11   10.1     3.3       6    96.9    59.7
   1978  12    5.6     0.6      10    22.2    30.3
   1979   1    3.1    -3.7      24    41.2    38.9
   1979   2    4.1    -2.8      22    17.9   105.0
   1979   3    5.8    -0.2      14    68.5   105.6
   1979   4    9.4     2.9       3    51.6   108.5
   1979   5   12.1     4.4       3    50.9   171.8
   1979   6   16.3     9.2       0    36.3   178.9
   1979   7   17.9    10.2       0    59.4   141.1
   1979   8   16.3     9.3       0    59.2   124.0
   1979   9   16.1     7.8       0    21.7   154.6
   1979  10   13.3     6.5       2    52.9    95.1
   1979  11    8.6     2.0       8    58.6    60.8
   1979  12    6.2     1.0       9    70.6    37.5
   1980   1    4.2    -0.2      17    61.9    36.6
   1980   2    7.2     0.9      13    29.7    72.2
   1980   3    7.1     0.5      11    21.5    84.6
   1980   4   11.9     3.9       1    18.3   133.5
   1980   5   14.3     5.0       0    13.4   206.5
   1980   6   16.4     9.3       0   113.7   134.4
   1980   7   17.5    10.0       0   113.5    94.9
   1980   8   17.6    10.2       0    74.7   108.9
   1980   9   16.6     8.8       0    63.2   104.1
   1980  10   10.5     4.9       3    84.7    70.0
   1980  11    8.2     2.2       9   103.2    35.8
   1980  12    7.7     2.3       8    72.6    19.5
   1981   1    6.9     0.1      12    56.1    37.8
   1981   2    6.6     0.7      12    23.1   103.3
   1981   3    8.7     2.0       7    42.9    95.8
   1981   4   11.1     2.0       8    10.7   187.4
   1981   5   15.0     6.0       2    41.4   196.4
   1981   6   15.9     8.4       0    47.4   159.7
   1981   7   18.0    10.6       0    40.8   133.2
   1981   8   18.7    10.8       0    25.4   137.8
   1981   9   16.9     8.7       0    89.7   123.5
   1981  10    9.1     3.4       3    86.5    95.7
   1981  11    8.9     3.1       5    75.7    57.2
   1981  12    3.0    -3.5      26    28.0    27.3
   1982   1    5.0    -0.9      13    48.0    32.3
   1982   2    8.4     0.7       9    14.1    88.8
   1982   3    8.5     2.0       6    45.0   116.3
   1982   4   11.5     4.2       2    19.7   135.1
   1982   5   14.6     4.3       5    32.8   238.9
   1982   6   15.1     7.5       0    34.7   126.9
   1982   7   19.7    10.4       0    30.4   212.1
   1982   8   17.5     9.9       0    99.9   139.0
   1982   9   15.6     7.3       0    61.0   108.9
   1982  10   12.5     6.5       2    51.1    76.3
   1982  11    8.6     2.9       2    74.5    48.3
   1982  12    5.8    -0.3      13    67.9    37.9
   1983   1    7.7     2.5       3    51.6    38.0
   1983   2    5.1    -1.7      17    15.9    82.0
   1983   3    9.4     3.0       3    38.2    66.0
   1983   4    8.7     1.9       9    14.3   125.7
   1983   5   11.6     5.6       1    42.4    81.6
   1983   6   15.6     8.2       0    39.5   160.6
   1983   7   19.7    11.4       0     9.1   178.4
   1983   8   19.6    11.6       0    34.0   170.0
   1983   9   14.0     8.4       0    92.8   102.6
   1983  10   12.5     6.0       1    52.3    89.4
   1983  11    9.4     3.9       5    18.2    44.0
   1983  12    8.3     1.9       8    68.2    27.4
   1984   1    3.9    -2.5      21    54.2    33.8
   1984   2    7.4     1.8       6    35.8    60.1
   1984   3    7.2     1.3       6    22.3    68.3
   1984   4   11.6     3.1       3    15.2   168.5
   1984   5   13.7     4.7       0     4.4   174.3
   1984   6   16.7     9.5       0    28.3   147.6
   1984   7   19.8    11.0       0    25.6   165.4
   1984   8   19.1    10.5       0    16.6   155.1
   1984   9   14.0     7.7       1   101.5    66.7
   1984  10   12.8     5.5       1   102.0    84.0
   1984  11    9.3     4.2       2    84.1    33.9
   1984  12    8.2     1.6       7    42.8    51.2
   1985   1    3.5    -1.0      14    37.5    43.1
   1985   2    6.7    -1.4      16     6.6   101.6
   1985   3    7.7     0.6      13    36.6   103.8
   1985   4   10.8     3.3       0    54.8    97.2
   1985   5   12.3     5.7       1    51.9   130.9
   1985   6   15.0     7.5       0    44.9   141.2
   1985   7   17.9    10.9       0    81.2   113.2
   1985   8   16.6     9.4       0    91.0   124.7
   1985   9   14.4     8.0       0    85.6    94.2
   1985  10   13.4     6.1       2    11.8   102.9
   1985  11    6.2     0.0      14    47.7    36.0
   1985  12    6.8     0.7      10    41.0    27.7
   1986   1    4.9     0.1      16    56.1    24.9
   1986   2    3.4    -2.7      20     5.5   101.0
   1986   3    9.0     1.8       7    37.7   123.6
   1986   4    8.8     1.5       6    30.7   117.1
   1986   5   14.5     6.4       0    49.1   167.1
   1986   6   16.9     7.7       0    50.8   204.0
   1986   7   17.8    10.2       0    39.3   143.6
   1986   8   14.7     8.1       0    71.4   116.7
   1986   9   14.5     7.3       0    28.7    98.6
   1986  10   13.0     6.9       0    30.5   101.7
   1986  11   10.2     3.2       4    22.8    64.4
   1986  12    6.7     1.8       1    80.0    28.8
   1987   1    4.2    -1.2      14    29.0    24.0
   1987   2    6.9    -0.5      13    38.3    70.4
   1987   3    7.1    -0.5      15    85.8   110.7
   1987   4   12.4     4.2       3    50.0   126.9
   1987   5   12.7     5.7       0    39.7   137.9
   1987   6   13.9     7.7       0    71.1   131.9
   1987   7   17.6    11.0       0    82.1    87.3
   1987   8   17.4    10.8       0    43.8   122.5
   1987   9   15.7     8.0       0    40.3   145.4
   1987  10   11.4     3.1       5    77.7    92.1
   1987  11    8.6     3.1       3    29.1    33.7
   1987  12    6.9     0.4      12    25.9    34.6
   1988   1    6.0     0.3      15   104.1    55.2
   1988   2    6.8     1.9       4    36.3    49.2
   1988   3    8.1     1.4       9    64.2   106.2
   1988   4   10.9     3.1       6    61.1   130.9
   1988   5   15.4     5.5       0    48.2   207.8
   1988   6   17.5     9.7       0    10.9   181.8
   1988   7   17.2    10.4       0    96.0   125.4
   1988   8   17.9     9.8       0   101.2   122.5
   1988   9   16.4     8.8       0    34.6   118.9
   1988  10   12.2     5.0       2    64.4    69.6
   1988  11    8.7     2.8       5    30.0    69.9
   1988  12    9.4     4.1       1    47.1    27.6
   1989   1   10.0     4.3       3    24.3    70.6
   1989   2    8.0     1.2       6   103.3    97.7
   1989   3    9.5     2.1       6    55.3   116.5
   1989   4    9.5     2.6       8    35.3   126.1
   1989   5   15.4     6.4       0    43.8   201.2
   1989   6   17.4     8.7       0    35.5   197.9
   1989   7   20.2    11.2       0    18.4   205.9
   1989   8   18.3     9.9       0    58.2   138.8
   1989   9   16.3     7.4       1    48.2   134.3
   1989  10   13.2     6.1       0    57.9    80.6
   1989  11    8.3     2.3       9    16.6    76.2
   1989  12    4.8    -1.8      18    31.0    33.2
   1990   1    7.9     1.8       7    60.8    48.0
   1990   2    8.0     2.4       2    99.1    79.6
   1990   3   10.4     4.0       1    88.1   104.5
   1990   4   10.9     3.7       3    27.6   178.1
   1990   5   14.1     6.2       0    36.4   184.9
   1990   6   15.5     9.0       0   138.2   104.0
   1990   7   18.3    10.7       0    23.0   238.8
   1990   8   18.8    11.6       0    72.7   124.7
   1990   9   14.5     8.3       0    72.6    90.6
   1990  10   13.0     6.7       1    67.2    97.9
   1990  11    7.6     3.0       5    54.3    34.1
   1990  12    7.1     1.6       6    54.6    22.9
   1991   1    5.8    -0.1      14    31.7    71.4
   1991   2    5.4    -1.0      15    27.9    68.9
   1991   3    9.6     2.5       7    44.4    78.3
   1991   4   11.3     4.3       1    15.8   163.3
   1991   5   13.0     7.3       0    37.1   159.0
   1991   6   13.7     8.0       0    82.3   141.5
   1991   7   17.9    12.3       0    48.2   123.4
   1991   8   19.7    11.5       0    36.0   163.6
   1991   9   15.9     8.3       0    53.4   143.4
   1991  10   11.7     5.8       0    32.2    74.9
   1991  11    9.1     3.2       2    52.9    47.3
   1991  12    8.2     1.0       9    39.9    26.2
   1992   1    7.7     0.3      16    60.9    50.6
   1992   2    8.9     1.2      10    25.3    63.0
   1992   3    8.8     2.4       6    70.3    58.2
   1992   4   11.0     3.6       1    32.4    91.8
   1992   5   16.1     6.8       0    31.1   226.1
   1992   6   17.7     9.9       0    29.2   165.6
   1992   7   17.7    10.3       0    19.6   109.4
   1992   8   17.0     9.1       0    91.3   147.1
   1992   9   14.8     8.2       0    80.6   107.3
   1992  10    9.9     3.6       3    49.8    73.0
   1992  11    8.5     2.2       6    62.8    65.1
   1992  12    5.5     0.1      15    57.0    39.4
   1993   1    6.9     1.3       6    90.5    34.1
   1993   2    9.0     4.2       3    16.3    51.3
   1993   3    9.9     2.5       7    21.0   119.0
   1993   4   10.9     4.1       0    29.8   102.6
   1993   5   11.0     5.6       0    69.9   108.3
   1993   6   15.0     9.4       0    52.3   109.4
   1993   7   16.7     9.8       0    55.9   123.2
   1993   8   16.5     9.5       0    33.5   103.6
   1993   9   14.3     7.4       2    34.4   113.1
   1993  10   10.0     4.3       2   110.9    58.4
   1993  11    7.5     0.4      13    14.3    70.0
   1993  12    5.1    -0.7      20    87.2    32.3
   1994   1    6.1     0.3      11    68.3    27.7
   1994   2    5.5    -1.2      16    42.8    80.6
   1994   3    8.1     1.4       5    95.8   113.7
   1994   4   10.6     3.2       2    61.6   130.3
   1994   5   13.1     4.6       0    25.6   244.8
   1994   6   17.1     8.8       0    43.9   188.0
   1994   7   19.5    10.8       0    37.4   166.2
   1994   8   17.5     9.9       0    49.0   141.7
   1994   9   15.1     7.5       0    46.8   126.7
   1994  10   11.9     4.7       2    73.3    71.5
   1994  11   11.4     5.3       3    58.1    49.7
   1994  12    8.1     1.6       8    60.9    50.1
   1995   1    6.1     0.3      10    88.6    38.1
   1995   2    6.9     0.7       8    54.7    70.3
   1995   3    7.5     1.1      11    29.8   114.4
   1995   4   10.3     4.1       1    29.2   106.5
   1995   5   14.1     6.4       2    36.1   185.1
   1995   6   15.7     8.9       0    24.0   194.6
   1995   7   20.0    11.5       0    23.7   217.5
   1995   8   20.1    11.7       0    15.4   224.1
   1995   9   14.9     9.3       0   222.4    85.2
   1995  10   14.8     7.6       1    49.9   109.0
   1995  11   10.0     3.9       3    38.9    51.8
   1995  12    4.2    -1.8      15    21.3    43.2
   1996   1    7.2     2.4       7     6.8    49.4
   1996   2    5.7    -0.1      11    35.1    72.5
   1996   3    7.0     2.3       3    15.5    65.2
   1996   4   12.2     4.8       2    41.7   127.6
   1996   5   11.6     4.8       1    45.2   187.8
   1996   6   ---     ---        0    25.0    ---
   1996   7   ---     ---        0    ---     ---
   1996   8   ---     ---        0    60.0    ---
   1996   9   ---     ---        0    23.1    ---
   1996  10   14.2     7.1       0    82.5    82.1
   1996  11    7.5     1.3      10    58.1    63.8
   1996  12    5.6    -0.3      15    23.4    17.2
   1997   1    6.4     0.1      17    36.2    57.6
   1997   2    8.6     1.8       4    80.0    68.2
   1997   3   11.4     4.3       1    60.3   100.0
   1997   4   12.3     3.9       5    21.5   102.0
   1997   5   13.1     5.9       1   115.7   157.7
   1997   6   15.3     8.7       0   142.6   132.3
   1997   7   19.2    11.0       0    79.8   140.7
   1997   8   21.0    11.8       0    43.3   195.7
   1997   9   16.3     8.1       1    33.0   135.7
   1997  10   13.5     5.3       2    16.0   104.0
   1997  11   10.8     5.4       1    40.3    46.9
   1997  12    8.0     2.4       6    47.0    24.1
   1998   1    7.7     0.8      11    66.7    47.7
   1998   2   11.2     4.9       1    46.0    47.1
   1998   3   10.4     2.4       8    41.9    77.5
   1998   4   10.0     2.1       7    75.1   125.8
   1998   5   14.8     6.8       0    32.7   162.9
   1998   6   ---     ---     ---     ---     --- ||
   1998   7   ---     ---     ---     ---     ---
   1998   8   ---     ---     ---     ---     ---
   1998   9   17.1     7.8       0    36.4   122.5
   1998  10   11.2     4.6       2    93.0   104.8
   1998  11    8.7     1.4       9    86.8    54.1
   1998  12    8.9     1.7       6    36.0    35.3
   1999   1    6.7     1.3       8    50.7    48.3
   1999   2    7.3     0.6      10    42.4    73.6
   1999   3    9.7     2.8       6    20.7   116.4
   1999   4   12.2     4.3       3    48.6   138.5
   1999   5   14.8     6.2       0    79.8   174.7
   1999   6   15.8     8.4       0    77.0   112.8
   1999   7   19.1    10.5       0    52.4   163.6
   1999   8   18.6     9.1       0    22.3   149.9
   1999   9   17.9     9.3       0    69.8   120.9
   1999  10   13.4     6.1       0    22.4    72.4
   1999  11   10.6     4.0       3    74.8    43.2
   1999  12    5.9     0.2      11    88.5    45.5
   2000   1    8.1     2.2       3    54.7    51.1
   2000   2    8.1     1.9       7    57.3    75.1
   2000   3   10.7     3.4       6    34.7    95.8
   2000   4   10.1     2.8       5   138.3   123.0
   2000   5   15.3     5.1       0    47.7    ---
   2000   6   16.2     7.7       0    30.7   162.5
   2000   7   16.9     9.7       0    10.4   136.0
   2000   8   18.7    10.2       0    57.4   138.5
   2000   9   16.6     8.8       0    58.6   111.6
   2000  10   13.3     5.8       0    72.5   100.6
   2000  11    8.7     2.0       6    80.1    68.0
   2000  12    7.1     1.3      12    76.6    50.3
   2001   1    5.1    -1.5      21     8.6    64.6
   2001   2    6.2     0.5      15    45.3    76.0
   2001   3    7.6    -0.3      14    36.4   118.8
   2001   4   10.7     3.3       1    22.0   144.9
   2001   5   15.8     6.0       2    35.8   224.0
   2001   6   15.8     8.0       0    47.0   143.2
   2001   7   17.5    10.6       0    62.2    93.6
   2001   8   18.2    10.3       0    71.3   114.0
   2001   9   14.7     8.6       0    41.7    68.2
   2001  10   15.0     8.4       0    95.5    66.0
   2001  11   10.5     3.8       0    68.5    40.1
   2001  12    7.0     0.1      19    57.6    33.8
   2002   1    8.7     1.9       7    54.8    44.4
   2002   2    7.3     1.5       6   107.7    58.9
   2002   3    9.9     2.6       3    51.5   112.9
   2002   4   13.1     3.8       5    40.1   169.0
   2002   5   15.1     6.1       1    40.7   195.0
   2002   6   17.8     9.1       0    49.2   145.7
   2002   7   17.5    10.4       0   131.7   115.1
   2002   8   18.4    11.5       0    45.1   136.7
   2002   9   16.6     9.0       0    39.5   101.0
   2002  10   11.5     4.4       5   101.9    79.2
   2002  11   10.2     3.8       5    67.1    55.2
   2002  12    6.9     1.5       9    11.4    28.2
   2003   1    7.0     0.7      16    50.3    50.2
   2003   2    8.4    -0.9      20    20.3   131.9
   2003   3   11.6     2.0       8    33.7   162.9
   2003   4   13.5     4.4       2    65.2   152.9
   2003   5   14.8     6.3       1    43.9   172.3
   2003   6   19.0    10.3       0    31.8   184.0
   2003   7   20.8    11.8       0    29.8   159.0
   2003   8   20.2    11.2       0    22.2   189.3
   2003   9   17.4     8.0       0    33.5   135.7
   2003  10   11.8     3.7       4    57.9    97.8
   2003  11   11.2     3.5       6    29.7    79.9
   2003  12    7.5     0.6      14    53.6    34.5
   2004   1    7.0     1.4       9    93.6    43.2
   2004   2    7.3     0.6      14    36.7    81.7
   2004   3    9.9     2.2       5    25.2   115.4
   2004   4   12.5     5.3       1    51.3    90.9
   2004   5   15.4     6.2       0    24.7   200.3
   2004   6   17.1     9.5       0    89.4   129.3
   2004   7   17.7    10.2       0    45.1   138.5
   2004   8   19.1    11.6       0   122.2   152.5
   2004   9   16.6     8.8       0    70.1   147.4
   2004  10   11.5     5.3       2    99.2    51.8
   2004  11   10.4     3.7       5    59.3    55.5
   2004  12    9.3     1.9      10    64.0    42.1
   2005   1    8.3     2.4       7    80.6    32.5
   2005   2    6.7     1.4       9    56.4    53.7
   2005   3    9.5     3.8       3    36.9    72.4
   2005   4   12.0     3.1       5    19.8   181.0
   2005   5   13.6     5.2       1    66.3   178.0
   2005   6   17.5     9.5       0    65.1   154.1
   2005   7   18.7    10.6       0    20.1   140.5
   2005   8   18.5    10.6       0    77.5   148.9
   2005   9   17.4     9.6       0    27.6   116.5
   2005  10   15.0     7.3       0   103.6    89.1
   2005  11    9.3     2.5       6    50.7    59.1
   2005  12    7.6     1.5      10    29.4    25.9
   2006   1    7.5     1.1       7    11.4    42.7
   2006   2    7.2     0.8      12    33.4    ---
   2006   3    6.4     0.4      11    58.3    60.0
   2006   4   10.9     3.0       2    19.5   168.5
   2006   5   14.9     5.4       1    65.0   183.7
   2006   6   ---     ---     ---     ---     ---
   2006   7   22.0    12.2       0    47.7   205.5
   2006   8   18.0    11.1       0    73.5   117.0
   2006   9   ---     ---     ---     79.1    ---
   2006  10   14.6     6.9       0   138.6    77.3
   2006  11   10.1     4.1       2    91.3    70.7
   2006  12    8.4     2.3       7    67.6    63.6
   2007   1    8.7     2.9       3    47.7    40.7
   2007   2    8.2     1.8       8    40.1    61.8
   2007   3   10.4     2.6       6    26.9   138.2
   2007   4   15.5     5.8       2    11.4   187.9
   2007   5   13.9     5.6       0   107.1   185.4
   2007   6   15.6     9.1       0    96.8   126.9
   2007   7   17.3    10.2       0   112.5    96.7
   2007   8   17.5     9.9       0    80.0   113.3
   2007   9   15.5     7.9       0    21.9    92.6
   2007  10   15.0     6.8       0    29.6   100.7
   2007  11    9.9     3.9       2    89.4    29.1
   2007  12   ---     ---     ---     ---     ---
   2008   1   ---     ---     ---     ---     ---
   2008   2   ---     ---     ---     ---     ---
   2008   3    8.2     1.6       6    41.6   106.8
   2008   4   10.9     2.3       6    57.5   139.8
   2008   5   16.0     6.3       0    21.2   205.1
   2008   6   16.5     8.7       0    49.0   134.0
   2008   7   19.3    11.3       0    80.7   158.4
   2008   8   18.5    11.0       0    88.7   106.4
   2008   9   16.3     8.9       0    43.3    97.3
   2008  10   11.9     5.0       1    84.1    83.4
   2008  11    9.3     2.6       8    36.9    44.5
   2008  12    6.2    -0.3      13    47.1    29.7
   2009   1    7.1     0.5      11    21.8    67.0
   2009   2    6.9*    0.9*     11*   53.5    56.7*
   2009   3   10.0     2.7       5    63.1   109.6
   2009   4   13.7*    4.6*      1*   17.8*  157.5*
   2009   5   15.6     5.2       0    47.4   245.9
   2009   6   17.6     9.0       0    41.9   208.8
   2009   7   19.8    10.7       0   121.9   174.0*
   2009   8   18.9*   11.3*      0*   53.7   154.6*
   2009   9   16.9     9.8       0   104.7   120.4
   2009  10   13.5     6.4       1    68.2    72.4
   2009  11    9.5*    2.6*      6*   74.6*   69.1*
   2009  12    4.7    -2.8      22   107.5    31.5
   2010   1    4.4    -1.3      16    32.3    34.5
   2010   2    4.9    -1.4      15    53.7    69.6
   2010   3    9.1     1.5      10    37.5   112.9
   2010   4   11.9     4.2       2    43.0   155.9
   2010   5   13.9     5.5       0    42.4   195.2
   2010   6   18.0*    9.6*      0*   34.6   135.0*
   2010   7   18.6*   10.6*      0*  101.8*  141.8*
   2010   8   17.8    10.2       0    66.7   139.1
   2010   9   16.0     8.4       0   109.8   104.6
   2010  10   12.6*    5.7*      1*   38.6   104.8*
   2010  11    7.0     0.6       7    60.4    52.6
   2010  12    3.3    -3.7      23    17.8    35.0*
   2011   1    6.2*    1.0*     10*   27.5*   65.8*
   2011   2    8.4     1.5       6    44.4    75.4
   2011   3    9.7     2.7       5    76.6    88.8
   2011   4   15.6     5.8       0    29.6   171.8
   2011   5   15.6     6.1       1    60.9   204.6
   2011   6   16.5     7.2       0    66.8   169.1*
   2011   7   18.1     9.9       0    54.5   139.0
   2011   8   17.3     9.9       0   112.2   111.2*
   2011   9   17.4     9.7       0    72.5   116.7*
   2011  10   14.5     8.4       0    47.3    83.0*
   2011  11   12.6     3.7       4    40.8    83.7
   2011  12    7.0     0.3      13   101.0    36.8
   2012   1    6.9*    1.0*     10*   68.5*   73.6*
   2012   2    9.3*    2.1*      8*   22.1*   78.3*
   2012   3   13.0*    4.2*      4*    5.2   159.7*
   2012   4    9.2     2.3       6   102.5   100.0
   2012   5   13.8     4.6       1    41.3   194.3
   2012   6   15.0     8.0       0    54.9   100.5
   2012   7   17.0     9.9       0    72.5    92.6
   2012   8   19.1    10.1       0    56.2   150.4
   2012   9   14.8*    8.0*      0*   67.2*  124.3*
   2012  10   10.7*    3.1*      5*   61.0*   84.3*
   2012  11    8.9*    1.9       8    18.0    58.0
   2012  12    6.2     0.0      14    48.1    35.5
   2013   1    6.1*    1.0*     10*   36.3*   42.5*
   2013   2    7.1    -0.5      14    30.0    90.3
   2013   3    6.0    -1.3      19    20.4   102.7*
   2013   4   10.5     0.1      14    28.8   164.9
   2013   5   14.1     3.3       5    54.3   155.0*
   2013   6   17.3     6.7       0    50.5*  146.9*
   2013   7   21.8    11.7*      0*   26.6   237.4
   2013   8   19.9    11.5*      0*   39.9   146.7
   2013   9   17.0     8.9*      0*   35.5   131.2
   2013  10   13.6*    6.9*      1*   47.1*   80.9*
   2013  11    8.7*    1.9*      8*   53.3    76.2*
   2013  12    9.3     3.4       4    73.8    22.6 
   2014   1    7.0*    1.7*     13*   19.4    51.7*
   2014   2    8.4     2.1       6    30.3    76.0 
   2014   3   11.1     3.2       4    26.3   130.7 
   2014   4   13.6     5.3       2    34.8   116.1 
   2014   5   14.9     6.7       1    47.7   120.9 
   2014   6   18.2    10.4       0    94.7   128.3 
   2014   7   20.9    10.9       0    35.2   204.6 
   2014   8   18.1     9.2       0   175.4   139.3 
   2014   9   17.8    10.2       0    22.3    98.3 
   2014  10   14.2     7.2       0   108.5    72.3 
   2014  11   10.8     3.9       6    44.0    51.4 
   2014  12    7.4     0.8       7   114.6    53.6*
   2015   1    6.5*    0.8*     12*  101.7*   62.1*
   2015   2    7.5*    0.9*      9*   20.3*   87.6*
   2015   3    9.7*    2.1*      6*   36.8*  158.7*
   2015   4   12.6*    3.3*      1*   37.1*  206.6*
   2015   5   12.5*    4.8*      3*   57.5*  187.2*
   2015   6   15.9*    7.9*      0*   51.9*  140.8*
   2015   7   17.7*   10.1*      0*  106.3*  154.0*
   2015   8   18.6*   10.6*      0*   71.9*  158.4*
   2015   9   16.3*    8.0*      0*   38.8*  149.5*
   2015  10   14.4*    5.4*      1*   44.4*  135.7*
   2015  11   10.1*    3.6*      2*   72.4*   59.3*
   2015  12    9.6*    3.2*      6*  105.2*   47.5*
   2016   1    6.7*    1.2*     14*   77.2*   45.5*
   2016   2    6.6*   -0.4*     13*   67.5*   74.4*
   2016   3    9.9*    2.3*      8*   36.4*  119.1*
   2016   4    9.9*    2.5*      4*   59.2*  142.0*
   2016   5   14.7*    7.1*      0*   32.8*  195.6*
   2016   6   16.2*    9.7*      0*   54.2*  140.2*
   2016   7   18.3*   11.1*      0*   63.5*  122.0*
   2016   8   18.7*   10.6*      0*   63.9*  195.9*
   2016   9   17.9*   10.3*      0*   63.1*  131.5*
   2016  10   13.7*    4.5*      4*   24.6*  131.4*
   2016  11    8.0*    0.8*      8*   27.7*   76.7*
   2016  12   10.4*    3.2*      4*   73.8*   38.7*
   2017   1    8.3*    1.5*     10*   51.6*   78.0*
   2017   2    8.6*    1.0*     11*   40.9*   99.3*
   2017   3   10.8*    2.4*     10*   50.4*  157.9*
   2017   4   11.7*    4.4*      1*   30.7*  109.6*
   2017   5   16.9*    7.0*      1*   35.8*  245.2*
   2017   6   17.0*    9.9*      0*  105.9*  115.6*
   2017   7   18.6*   10.3*      0*   58.9*  151.9*
   2017   8   18.1*   10.7*      0*   91.0*  139.4*
   2017   9   15.8*    9.4*      0*   93.2*  112.8*
   2017  10   14.4*    7.6*      1*   67.1*   83.7*
   2017  11    7.7*    2.1*      2*   94.6*   54.8*
   2017  12    7.0*    1.3*     13*   55.9*   27.2*
   2018   1    5.4*   -0.2*     15*   49.3*   67.4*  Provisional
   2018   2    5.9*   -0.6*     14*   26.3*  123.7*  Provisional
   2018   3    6.7*    0.3*     11*   39.0*  114.0*  Provisional
   2018   4   12.0*    3.7*      4*   31.0*  191.7*  Provisional
   2018   5   17.0*    6.7*      1*   28.0*  240.7*  Provisional
   2018   6   18.7*    9.3*      0*   23.3*  245.9*  Provisional
   2018   7   21.5*   11.9*      0*   32.4*  206.9*  Provisional
   2018   8   18.5*   10.3*      0*   40.1*  156.1*  Provisional