Waddington
Location 498800E 365300N, Lat 53.175 Lon -0.522, 68m amsl
Estimated data is marked with a * after the value.
Missing data (more than 2 days missing in month) is marked by  ---.
Sunshine data taken from an automatic Kipp & Zonen sensor marked with a #, otherwise sunshine data taken from a Campbell Stokes recorder.
   yyyy  mm   tmax    tmin      af    rain     sun
              degC    degC    days      mm   hours
   1947   1    3.3    -0.7    ---     34.0    60.0
   1947   2   -0.6    -3.8    ---     19.0    24.7
   1947   3    6.2     0.0    ---     95.0    73.7
   1947   4   12.6     4.7    ---     43.0   161.7
   1947   5   19.8     8.1    ---     13.0   209.4
   1947   6   21.7    11.0    ---     64.0   212.6
   1947   7   22.2    13.0    ---     34.0   183.4
   1947   8   26.1    12.4    ---      2.0   267.7
   1947   9   20.6    10.4    ---     28.0   163.4
   1947  10   15.6     6.7    ---      6.0   103.4
   1947  11    9.5     3.6    ---     32.0    90.8
   1947  12    6.7     2.3    ---     54.0    34.0
   1948   1    7.3     2.3    ---     83.0    43.6
   1948   2    7.0     1.5    ---     17.0    63.0
   1948   3   13.0     3.0    ---      8.0   161.8
   1948   4   14.4     4.0    ---     31.0   204.1
   1948   5   16.9     5.8    ---     49.0   239.6
   1948   6   17.8     9.0    ---     78.0   168.6
   1948   7   20.0    10.8    ---     36.0   186.0
   1948   8   19.2    10.9    ---     70.0   129.7
   1948   9   18.0    10.1    ---     66.0   127.5
   1948  10   13.8     6.2    ---     51.0   102.3
   1948  11    8.9     3.4    ---     25.0    67.1
   1948  12    7.4     2.8    ---     73.0    45.9
   1949   1    7.6     1.4       9    23.7    61.0
   1949   2    9.4     1.2       7     9.7   119.0
   1949   3    7.6     0.9      11    24.4    87.7
   1949   4   14.8     5.3       1    50.4   178.8
   1949   5   15.5     5.8       0    50.3   233.4
   1949   6   19.9     8.9       0    15.1   246.0
   1949   7   22.3    11.9       0    57.0   203.6
   1949   8   22.0    11.8       0    50.1   228.8
   1949   9   20.7    12.2       0    29.1   157.3
   1949  10   14.8     7.3       3    82.7   119.7
   1949  11    8.9     2.9       2    62.0    68.3
   1949  12    8.0     2.5       3    39.0    58.2
   1950   1    6.5     0.7      13    25.0    42.9
   1950   2    8.5     1.3       7    99.4    82.5
   1950   3   11.2     2.7       4    20.9   123.7
   1950   4   11.0     2.7       2    54.5   164.6
   1950   5   14.3     6.5       0    59.7   153.1
   1950   6   21.4    10.6       0    31.5   248.7
   1950   7   20.8    11.6       0    62.4   194.7
   1950   8   20.8    11.2       0    41.4   172.8
   1950   9   16.7     8.7       0    85.2   109.8
   1950  10   13.1     5.7       3    18.0   123.5
   1950  11    8.1     2.7       3   112.1    53.3
   1950  12    2.9    -1.8      20    38.7    40.7
   1951   1    5.8     0.5      10    47.9    53.4
   1951   2    6.0     0.2       9    68.6    57.1
   1951   3    7.2     0.3      14    81.7    98.2
   1951   4   10.7     2.4       3    37.5   201.0
   1951   5   13.5     5.6       0    90.7   167.0
   1951   6   18.0     8.7       0    25.9   221.6
   1951   7   21.2    11.6       0    20.1   194.3
   1951   8   19.4    10.7       0   131.3   175.6
   1951   9   18.4    10.0       0    21.0   129.4
   1951  10   13.5     5.4       2    22.1   120.8
   1951  11   10.9     4.7       1   121.9    59.4
   1951  12    8.1     1.4       8    32.5    61.3
   1952   1    4.8    -0.7      18    30.1    87.1
   1952   2    6.2    -0.6      17     7.9    82.8
   1952   3    9.4     2.5       7    60.2    97.0
   1952   4   14.1     4.4       3    22.7   177.1
   1952   5   18.0     7.7       0    39.2   211.2
   1952   6   18.8     9.9       0    69.2   186.1
   1952   7   21.1    11.8       0     7.2   188.9
   1952   8   21.1    11.9       0    50.5   200.4
   1952   9   14.8     7.5       0    51.5   117.1
   1952  10   12.1     5.1       0    65.0   120.4
   1952  11    6.5     0.9       9    56.6    77.5
   1952  12    5.4     0.0      14    37.3    56.7
   1953   1    5.4     0.8      10    22.8    44.7
   1953   2    7.2     1.0      12    34.9    65.1
   1953   3   10.2     0.7      15    24.9   124.5
   1953   4   11.1     2.7       0   139.6   179.8
   1953   5   17.3     7.5       0    75.6   232.5
   1953   6   17.2    10.0       0    49.9   137.5
   1953   7   19.8    11.0       0    39.3   199.9
   1953   8   21.2    11.0       0    48.5   212.8
   1953   9   18.2     9.3       0    30.0   158.8
   1953  10   13.1     5.1       3    46.9    76.5
   1953  11   10.6     4.5       2    32.9    52.8
   1953  12    8.2     4.0       2    26.9    30.9
   1954   1    5.0    -1.0      19    30.7    55.4
   1954   2    4.0    -2.2      16    57.9    50.1
   1954   3    8.5     1.3       7    42.3    91.5
   1954   4   11.7     2.5       5     7.8   147.6
   1954   5   15.8     6.5       0    69.6   144.6
   1954   6   16.7     9.4       0    68.9   149.8
   1954   7   17.9     9.8       0    60.1   125.1
   1954   8   18.1    10.5       0   100.8   108.6
   1954   9   16.5     8.3       0    52.2   172.5
   1954  10   14.8     8.3       1    82.1    87.9
   1954  11    9.4     2.9       3   110.3    61.9
   1954  12    8.5     3.0       7    68.5    50.1
   1955   1    4.3    -1.0      13    39.0    42.9
   1955   2    3.6    -3.5      21    65.0    82.6
   1955   3    6.8    -1.9      22    58.3   141.0
   1955   4   13.5     4.6       1    23.0   145.1
   1955   5   13.6     4.5       1    69.3   175.5
   1955   6   17.5     8.8       0    95.4   152.6
   1955   7   22.2    11.9       0    40.5   265.3
   1955   8   22.6    12.9       0     9.6   175.4
   1955   9   18.9     9.8       0    37.9   163.2
   1955  10   13.4     5.4       4    26.9   129.2
   1955  11    9.8     4.2       2    27.2    59.5
   1955  12    8.0     1.5       9    37.5    58.9
   1956   1    4.9    -0.1      12   118.6    58.4
   1956   2    2.1    -4.0      24    34.9    65.2
   1956   3    9.9     1.2       9    17.1   129.0
   1956   4   10.4     1.8       7    33.3   159.7
   1956   5   17.4     6.9       0    12.3   253.8
   1956   6   16.6     8.5       0    96.7   139.9
   1956   7   19.2    12.0       0    72.5   160.9
   1956   8   17.0     9.6       0   217.5   137.7
   1956   9   18.1     9.9       0    42.7   126.0
   1956  10   12.9     5.3       0    24.2   108.0
   1956  11    8.7     3.2       3    19.7    63.2
   1956  12    7.4     2.9      10    31.8    22.7
   1957   1    8.0     1.7       7    28.3    47.2
   1957   2    7.9     1.4       8    48.7    81.9
   1957   3   12.1     4.8       1    37.0    95.3
   1957   4   12.3     3.7       2     4.8   157.1
   1957   5   14.6     5.4       2    39.5   219.2
   1957   6   20.1     9.3       0    40.7   282.1
   1957   7   19.6    12.5       0    71.7   139.9
   1957   8   18.6    11.3       0    72.2   137.0
   1957   9   15.6     9.1       0   102.2   116.0
   1957  10   13.9     7.2       0    25.2    87.5
   1957  11    8.4     3.5       3    52.1    63.4
   1957  12    6.9     1.3      10    35.5    60.2
   1958   1    5.5    -0.2      14    49.6    61.5
   1958   2    7.5     0.8      14    91.9    74.5
   1958   3    6.5    -0.2      16    44.2   122.4
   1958   4   11.2     3.0       5    10.0   162.8
   1958   5   16.0     6.8       0    44.0   190.2
   1958   6   17.2     9.4       0   121.9   135.5
   1958   7   19.8    11.8       0   126.1   184.5
   1958   8   19.9    11.8       0    72.1   159.6
   1958   9   18.6    10.9       0    53.2   154.7
   1958  10   13.6     7.0       0    36.4   106.8
   1958  11    8.2     3.1       3    19.1    54.9
   1958  12    6.3     1.2      10    73.1    23.4
   1959   1    3.7    -1.9      23    58.2    76.5
   1959   2    7.1     1.2      10     8.1    64.6
   1959   3   10.4     3.4       0    48.8    96.0
   1959   4   13.5     5.4       0    39.5   179.1
   1959   5   17.0     6.9       0    18.6   237.4
   1959   6   20.4    10.3       0    13.4   254.4
   1959   7   22.9    12.3       0    30.0   249.8
   1959   8   22.9    12.7       0    16.6   216.6
   1959   9   20.3     9.9       0     2.2   177.0
   1959  10   17.2     7.7       0    49.0   162.0
   1959  11    9.1     3.0       7    41.3    51.9
   1959  12    8.0     2.8       2    72.2    33.8
   1960   1    6.0     0.8      11   115.6    30.8
   1960   2    6.3     0.3      15    45.2    74.3
   1960   3    8.2     2.6       4    33.2    56.5
   1960   4   13.0     4.5       0    22.2   155.6
   1960   5   17.2     8.0       0    19.4   219.1
   1960   6   21.5    10.3       0    16.1   282.5
   1960   7   19.1    11.3       0    90.9   142.4
   1960   8   19.1    10.9       0   128.4   147.8
   1960   9   16.6     9.5       0    59.4   119.7
   1960  10   13.0     7.0       0   115.8    59.8
   1960  11    9.7     3.7       0    72.1    59.4
   1960  12    5.9     1.4      11    82.3    38.9
   1961   1    5.1     0.3      14    79.7    34.1
   1961   2    9.3     3.6       0    29.1    56.7
   1961   3   12.8     3.7       1     5.9   142.6
   1961   4   13.2     5.7       0    63.5   105.1
   1961   5   14.4     6.2       0    18.8   207.7
   1961   6   19.7    10.3       0    15.6   211.5
   1961   7   18.6    11.0       0    59.4   141.8
   1961   8   19.5    11.2       0    77.2   182.2
   1961   9   19.2    11.0       0    55.0   126.8
   1961  10   14.1     6.8       0    51.7   101.8
   1961  11    8.8     2.6       5    22.5    58.5
   1961  12    4.5    -1.4      22    70.2    60.9
   1962   1    6.8     0.9       9    43.4    78.2
   1962   2    7.2     1.0      10    15.0    71.1
   1962   3    6.1    -1.5      22    27.7   121.0
   1962   4   11.1     3.3       2    58.7   150.3
   1962   5   13.6     5.8       0    42.9   151.9
   1962   6   18.6     8.8       0     3.5   228.2
   1962   7   18.2    10.3       0    39.2   125.3
   1962   8   18.3    10.6       0   102.3   153.8
   1962   9   16.4     8.9       0    77.0   119.7
   1962  10   13.8     6.5       1    15.9   101.9
   1962  11    7.7     2.0       7    44.5    50.0
   1962  12    4.2    -2.2      21    26.5    69.1
   1963   1    0.4    -4.3      27    22.4    61.8
   1963   2    0.9    -4.1      28    12.2    58.1
   1963   3    8.9     1.9       7    49.0    98.1
   1963   4   11.8     4.1       1    47.2   119.9
   1963   5   14.6     6.1       0    35.7   206.2
   1963   6   19.1     9.7       0    28.5   206.4
   1963   7   19.6    10.3       0    85.4   201.4
   1963   8   17.2    10.1       0    91.8   109.1
   1963   9   17.1     9.0       0    57.6   147.9
   1963  10   13.9     7.1       0    28.3    85.9
   1963  11   10.5     4.7       0    69.9    52.5
   1963  12    5.0     0.0      10    14.8    51.6
   1964   1    4.9    -0.2      13    16.3    50.2
   1964   2    6.9     1.2      10    15.6    71.5
   1964   3    5.7     1.0      11    79.2    59.1
   1964   4   12.4     5.0       0    40.0   111.1
   1964   5   18.3     8.2       0    11.9   228.3
   1964   6   17.6     9.6       0    68.9   129.8
   1964   7   20.6    11.7       0    25.7   192.2
   1964   8   20.4    11.2       0    35.5   198.8
   1964   9   19.4     8.5       0     8.0   171.4
   1964  10   12.5     4.7       0    21.5   123.4
   1964  11    9.7     3.9       5    32.9    51.6
   1964  12    5.6    -0.4      16    26.8    53.3
   1965   1    5.5     0.4      17    35.6    80.5
   1965   2    5.4     0.8      10    16.8    32.2
   1965   3    9.0     0.5      14    45.1   136.3
   1965   4   12.0     3.7       3    51.2   150.5
   1965   5   15.3     7.5       0    50.0   180.6
   1965   6   18.8     9.6       0    54.2   205.8
   1965   7   16.9     9.8       0    94.6   101.2
   1965   8   19.1    10.1       0    49.7   176.1
   1965   9   16.3     9.0       0   136.0   109.5
   1965  10   14.5     6.4       0    10.9   111.6
   1965  11    6.8     1.5      11    83.7    73.2
   1965  12    6.3     1.2       6   140.0    56.9
   1966   1    4.0    -0.3      18    36.7    38.5
   1966   2    7.5     2.3      11    92.7    47.0
   1966   3    9.8     2.6       4    16.7   125.9
   1966   4    9.5     3.7       3    72.0    90.1
   1966   5   15.6     6.4       0    37.1   225.1
   1966   6   20.0    10.8       0    65.3   196.7
   1966   7   18.6    10.8       0    79.5   179.6
   1966   8   19.0    10.5       0    46.9   183.5
   1966   9   17.7     9.9       0    29.3   129.3
   1966  10   13.1     6.6       0    74.0    80.2
   1966  11    7.7     2.3       4    47.6    48.3
   1966  12    7.4     1.6       6    50.1    45.5
   1967   1    6.2     1.2      10    20.9    74.7
   1967   2    8.1     2.0       5    43.8    88.3
   1967   3   10.8     3.8       1    28.5   174.3
   1967   4   11.0     3.8       2    41.4   126.9
   1967   5   14.1     5.8       2   113.3   180.7
   1967   6   18.6     9.0       0    50.7   247.7
   1967   7   21.6    12.6       0    27.7   224.8
   1967   8   20.2    11.4       0    46.1   146.4
   1967   9   17.3     9.8       0    32.8   116.2
   1967  10   14.0     7.5       0   100.5   120.0
   1967  11    8.0     2.1       7    69.9    63.0
   1967  12    6.0     1.0      13    44.1    54.7
   1968   1    6.5     1.2      12    39.5    46.0
   1968   2    4.2    -0.8      18    16.6    52.8
   1968   3   10.4     2.4       7    16.6   113.2
   1968   4   13.0     3.6       7    49.1   206.4
   1968   5   13.8     5.5       0    47.9   172.2
   1968   6   19.1     9.9       0    48.4   200.7
   1968   7   18.3    10.8       0   114.8   109.0
   1968   8   19.1    11.4       0    65.7   141.2
   1968   9   17.3     9.9       0    84.1   113.5
   1968  10   15.0     9.6       0    51.8    66.9
   1968  11    8.3     3.9       1    81.6    48.3
   1968  12    4.2     0.3      14    30.2    38.0
   1969   1    7.4     2.5       7    58.6    27.3
   1969   2    2.5    -2.2      20    46.9    68.8
   1969   3    5.2     0.2      16    66.2    64.2
   1969   4   11.3     2.8       3    75.5   172.5
   1969   5   14.9     7.2       0    82.4   140.7
   1969   6   18.2     8.6       0    56.3   280.8
   1969   7   21.6    12.5       0    86.8   239.4
   1969   8   19.5    12.1       0    35.1   137.0
   1969   9   17.2     9.9       0    20.4   119.7
   1969  10   15.8     8.8       0    17.2    98.1
   1969  11    7.6     1.7      10   117.1    77.8
   1969  12    4.8     0.7      16    61.9    28.7
   1970   1    5.2     0.8      11    49.9    29.0
   1970   2    5.6    -0.2      13    49.8   112.0
   1970   3    6.5    -0.2      17    51.6   104.9
   1970   4   10.0     3.0       7    78.3   142.2
   1970   5   17.6     7.8       0     6.0   216.7
   1970   6   21.6    10.4       0    18.6   268.9
   1970   7   19.5    11.6       0    45.9   169.4
   1970   8   20.2    11.7       0    80.3   187.8
   1970   9   18.3    10.2       0    23.8   162.3
   1970  10   14.2     7.1       0    31.7   104.5
   1970  11    9.8     4.4       2   119.8    60.3
   1970  12    6.1     1.5      10    25.6    49.5
   1971   1    6.3     1.4      10    66.6    49.3
   1971   2    7.4     1.5       7    13.6    65.6
   1971   3    8.0     1.6      10    42.3   104.6
   1971   4   10.5     4.0       1    40.1   104.3
   1971   5   15.7     6.6       0    39.9   229.1
   1971   6   15.4     8.4       0    46.4   138.8
   1971   7   22.0    12.1       0    23.1   235.7
   1971   8   19.6    11.7       0   103.4   140.1
   1971   9   19.0     9.8       0    19.5   163.6
   1971  10   15.4     7.5       0    26.0   138.7
   1971  11    8.7     2.6      12    55.1    88.7
   1971  12    8.1     3.6       5    25.2    40.9
   1972   1    5.4     1.1      10    48.7    51.1
   1972   2    6.1     1.2       6    25.2    36.3
   1972   3   10.1     2.1       5    79.3   132.1
   1972   4   11.5     4.9       0    37.7   106.3
   1972   5   14.8     6.8       0    62.4   184.7
   1972   6   16.2     8.4       0    59.2   163.0
   1972   7   18.9    10.8       0    58.6   156.5
   1972   8   19.6    10.8       0    17.8   196.5
   1972   9   15.2     8.0       0    54.4    94.9
   1972  10   13.9     6.6       1    16.3    85.7
   1972  11    9.1     3.6       7    47.4    76.2
   1972  12    7.4     2.1       5    55.6    39.6
   1973   1    6.4     1.8       7    22.2    41.0
   1973   2    7.6     0.8      11    16.9    89.5
   1973   3   10.3     2.5       4    12.1   111.2
   1973   4   11.0     3.1       4    48.7   165.8
   1973   5   15.4     7.0       0    52.1   197.7
   1973   6   20.2    10.4       0    95.8   269.3
   1973   7   19.7    11.8       0   115.9   132.2
   1973   8   20.9    11.8       0    31.8   182.4
   1973   9   18.4    10.6       0    43.5   154.9
   1973  10   12.5     5.7       1    35.3    99.2
   1973  11    8.2     2.6       7    28.9    92.3
   1973  12    7.4     1.3      11    39.8    57.5
   1974   1    8.4     1.7       4    47.4    71.0
   1974   2    8.0     2.2       4    44.4    61.8
   1974   3    8.5     1.9       5    33.7    99.5
   1974   4   10.7     3.4       1     7.0   136.3
   1974   5   15.9     6.0       0    24.1   221.3
   1974   6   17.6     9.1       0    53.7   197.0
   1974   7   19.2    10.8       0   100.3   157.9
   1974   8   19.9    11.0       0    80.8   197.3
   1974   9   15.8     8.2       0    57.2   144.4
   1974  10   10.4     4.9       0   103.4   100.2
   1974  11    8.8     3.1       2    62.7    52.1
   1974  12   10.0     4.8       2    33.8    57.1
   1975   1    9.0     3.3       3    51.9    40.8
   1975   2    6.5     1.1       9    21.6    32.9
   1975   3    7.2     1.6       8    84.3    92.6
   1975   4   11.9     4.7       4    66.6   125.9
   1975   5   13.2     5.7       0    45.8   192.2
   1975   6   19.9     8.8       0     9.9   267.5
   1975   7   22.1    12.7       0    22.7   201.1
   1975   8   24.8    13.5       0    21.2   250.0
   1975   9   17.9     9.5       0    34.0   139.5
   1975  10   13.6     5.8       1    18.3   105.3
   1975  11    8.7     2.2       7    42.8    77.7
   1975  12    7.5     2.4       7    51.5    61.7
   1976   1    7.7     2.5       8    45.2    55.4
   1976   2    6.8     1.7       7    18.1    53.8
   1976   3    7.9     1.2      13    22.4   114.9
   1976   4   11.6     4.0       3    17.7   146.4
   1976   5   16.1     7.5       0    53.7   147.4
   1976   6   22.8    11.5       0     6.2   270.8
   1976   7   24.2    12.3       0    17.4   271.5
   1976   8   22.7    11.5       0    18.9   238.9
   1976   9   16.9     9.6       0   115.2   105.4
   1976  10   13.3     7.4       0   131.6    68.5
   1976  11    8.2     2.5       3    34.6    71.7
   1976  12    3.6    -0.5      17    64.7    65.6
   1977   1    4.4     0.0      15    70.4    52.4
   1977   2    6.9     1.4       7   132.4    62.5
   1977   3    9.8     3.0       4    34.1    92.3
   1977   4   10.8     3.1       5    41.6   169.8
   1977   5   14.0     5.9       0    37.5   237.2
   1977   6   16.3     8.4       0    57.2   178.6
   1977   7   19.8    11.2       0    15.1   185.4
   1977   8   19.3    11.3       0    70.3   154.4
   1977   9   17.2     9.7       0    13.3   123.2
   1977  10   14.8     7.9       0    19.2   110.2
   1977  11    8.9     3.5       3    63.3    93.2
   1977  12    8.0     3.3       4    51.5    56.1
   1978   1    5.0     0.0      13    77.4    41.4
   1978   2    4.3    -1.2      16    50.4    59.3
   1978   3   10.6     2.9       3    44.7   121.0
   1978   4    9.3     2.4       4    30.9    92.9
   1978   5   15.2     6.1       0    48.0   219.1
   1978   6   17.9     9.5       0    83.0   169.2
   1978   7   18.4    10.5       0    59.6   139.5
   1978   8   18.8    11.2       0    67.4   134.3
   1978   9   18.1    10.1       0    32.0   149.6
   1978  10   15.3     8.2       0     8.3    84.0
   1978  11   11.2     5.0       5    19.3    89.6
   1978  12    5.6     0.7      15   163.0    31.1
   1979   1    2.1    -3.6      26    48.7    61.8
   1979   2    2.7    -1.4      25    56.0    57.7
   1979   3    7.6     1.2       7    68.8    87.7
   1979   4   11.4     3.9       2    42.8   124.3
   1979   5   14.6     5.9       3   102.1   189.4
   1979   6   18.5     9.7       0    16.5   193.5
   1979   7   20.9    11.4       0    24.1   182.5
   1979   8   19.5    11.0       0    83.3   168.5
   1979   9   18.2     9.2       0    33.4   185.3
   1979  10   14.7     6.8       1    67.1   117.8
   1979  11    9.2     3.1       6    39.1    70.1
   1979  12    7.5     3.0       5    91.0    62.8
   1980   1    4.2    -0.8      18    73.2    69.7
   1980   2    7.8     2.2       4    75.2    42.0
   1980   3    7.7     1.1       6    90.0    83.7
   1980   4   12.9     3.9       0    14.1   168.6
   1980   5   15.2     5.5       1    23.9   228.5
   1980   6   17.9    10.0       0   108.8   168.6
   1980   7   18.3    10.2       0    35.7   150.6
   1980   8   19.8    11.7       0   117.3   138.8
   1980   9   18.7    10.6       0    30.3   162.6
   1980  10   12.2     5.2       1    94.2   127.5
   1980  11    8.5     4.0       4    62.3    55.7
   1980  12    7.9     2.3       9    17.8    65.5
   1981   1    6.9     1.4      14    32.4    50.4
   1981   2    5.3     0.0      17    47.0    66.1
   1981   3   10.5     4.5       3   108.8    58.5
   1981   4   10.6     3.6       2    80.6   141.0
   1981   5   15.5     6.8       1    70.1   172.3
   1981   6   17.3     9.4       0    23.6   169.6
   1981   7   20.2    11.6       0    34.2   176.5
   1981   8   20.7    11.6       0    68.5   185.4
   1981   9   19.3    10.2       0    86.2   175.9
   1981  10   11.7     4.5       1    55.6   134.3
   1981  11   10.2     4.1       0    23.6    66.1
   1981  12    1.9    -3.4      24    49.8    54.9
   1982   1    5.0    -1.2      16    35.8    62.3
   1982   2    7.3     1.3       9    19.7    58.1
   1982   3    9.6     2.3       4    67.5   161.4
   1982   4   12.8     4.1       0     7.2   177.5
   1982   5   16.9     6.5       0    24.4   257.5
   1982   6   19.1    11.5       0   146.6   134.8
   1982   7   20.7    12.2       0    21.5   186.5
   1982   8   20.2    11.8       0    77.9   172.3
   1982   9   18.7     9.9       0    47.5   162.7
   1982  10   13.0     6.7       0    59.6    80.3
   1982  11    9.7     5.0       4    48.4    65.2
   1982  12    6.5     0.6      15    46.1    49.2
   1983   1    9.1     3.3       4    43.4    65.4
   1983   2    3.4    -1.2      20    42.6    63.9
   1983   3    9.6     3.1       2    38.1    92.9
   1983   4   10.5     2.6       2    90.7   138.5
   1983   5   13.4     6.0       0   107.8   123.2
   1983   6   18.0     9.5       0    15.0   170.0
   1983   7   24.5    13.2       0    42.1   245.6
   1983   8   22.0    12.4       0    42.4   204.7
   1983   9   17.0     9.9       0    63.5   122.1
   1983  10   13.6     6.9       2    31.9   120.2
   1983  11    9.5     4.8       5    42.7    47.1
   1983  12    7.4     2.4       8    39.7    57.9
   1984   1    5.4     0.0      12    90.5    73.3
   1984   2    5.5    -0.2      13    40.7    67.1
   1984   3    7.2     1.5       5    52.0    52.5
   1984   4   12.4     2.6       5    14.8   211.9
   1984   5   13.7     5.0       0    70.4   172.8
   1984   6   18.5    10.2       0    27.4   205.9
   1984   7   21.8    11.2       0    16.7   226.7
   1984   8   22.2    12.4       0    90.2   220.4
   1984   9   16.6    10.4       0    81.2   106.5
   1984  10   14.6     7.2       0    35.5   120.5
   1984  11   10.0     5.1       0    94.6    50.6
   1984  12    7.2     2.0       7    47.0    62.6
   1985   1    3.1    -1.9      23    55.8    44.9
   1985   2    5.0    -1.0      15     3.1    87.9
   1985   3    7.8     0.8      13    48.2   125.3
   1985   4   11.7     4.6       2    43.8   118.2
   1985   5   14.1     6.6       0    70.7   149.9
   1985   6   16.1     8.4       0   103.6   169.2
   1985   7   20.2    12.0       0    41.7   201.9
   1985   8   18.6    10.8       0    54.1   156.5
   1985   9   18.9    10.6       0    17.9   140.1
   1985  10   14.5     7.9       0    20.8   117.3
   1985  11    6.5     0.8      12    73.2   101.5
   1985  12    8.2     3.8       5    77.6    36.3
   1986   1    5.5     0.2      14    52.6    75.4
   1986   2    0.6    -3.7      24    24.0    85.3
   1986   3    8.6     1.0       8    47.2   138.0
   1986   4    9.2     2.2       7    64.4   134.3
   1986   5   15.7     7.3       0    82.6   222.2
   1986   6   19.1     9.6       0    37.0   236.5
   1986   7   20.4    11.8       0    42.9   198.2
   1986   8   17.4     9.8       0    85.6   143.2
   1986   9   16.2     7.0       0    17.0   191.0
   1986  10   14.4     6.7       0    40.1   124.8
   1986  11   10.4     4.3       0    56.9    85.6
   1986  12    8.2     2.7       5    74.2    61.7
   1987   1    2.6    -1.6      19    32.8    54.7
   1987   2    6.3     0.0      14    43.7    70.1
   1987   3    7.2     0.5      16    65.6   107.2
   1987   4   14.4     5.5       0    50.4   155.6
   1987   5   13.8     5.7       0    50.8   188.8
   1987   6   16.3     9.3       0   104.4   133.5
   1987   7   19.5    11.9       0    61.9   165.9
   1987   8   19.1    12.0       0    77.1   126.3
   1987   9   17.7     9.6       0    43.7   158.4
   1987  10   12.8     6.1       0    96.2   114.7
   1987  11    8.4     3.9       3    36.8    45.9
   1987  12    7.8     3.1       8    30.9    28.4
   1988   1    7.3     2.1       4    98.8    54.9
   1988   2    7.5     1.4       8    30.5   121.8
   1988   3    9.2     2.5       6    70.9    97.6
   1988   4   11.7     4.3       3    24.6   119.7
   1988   5   15.8     7.1       0    49.6   197.0
   1988   6   17.9    10.0       0    38.2   168.9
   1988   7   18.7    11.4       0   132.7   155.7
   1988   8   19.9    11.6       0    47.7   191.0
   1988   9   17.1     9.5       0    20.7   139.1
   1988  10   13.5     7.1       2    33.6   108.4
   1988  11    8.2     1.8       9    41.1   101.2
   1988  12    9.3     4.6       0    24.4    56.6
   1989   1    8.5     3.0       3    21.0    72.1
   1989   2    8.9     2.0       4    26.2   109.3
   1989   3   11.0     3.4       3    43.8   112.0
   1989   4    9.6     2.7       2    82.0   123.5
   1989   5   18.1     7.8       0     8.4   290.9
   1989   6   19.9     9.4       0    74.8   240.7
   1989   7   22.8    12.8       0    31.1   258.1
   1989   8   22.1    11.7       0    34.1   266.2
   1989   9   19.1    10.8       0    31.0   140.2
   1989  10   15.2     8.2       0    60.5   102.6
   1989  11    9.2     3.1       4    37.0    92.5
   1989  12    6.9     2.5       3    88.1    26.1
   1990   1    9.0     3.2       3    48.9    72.3
   1990   2   10.3     3.9       2    65.9    86.3
   1990   3   12.4     4.6       2    13.5   166.8
   1990   4   13.0     3.3       3    18.4   209.7
   1990   5   17.7     7.5       0    16.0   244.8
   1990   6   17.7     9.6       0    61.4   116.7
   1990   7   22.0    11.4       0    24.3   259.3
   1990   8   24.0    13.3       0    49.9   250.3
   1990   9   17.3     9.7       0    36.0   139.8
   1990  10   15.2     8.7       0    55.4   107.0
   1990  11    9.0     4.0       1    35.0    46.6
   1990  12    6.7     1.9       4    36.2    48.0
   1991   1    5.5     0.1      14    37.7    82.3
   1991   2    4.4    -1.0      16    63.0    47.3
   1991   3   11.1     4.3       4    27.4    86.9
   1991   4   11.7     3.7       1    37.1   157.2
   1991   5   14.3     7.0       0    11.2   133.8
   1991   6   16.0     8.2       0    42.8   144.4
   1991   7   22.9    13.1       0    14.2   227.8
   1991   8   22.8    12.6       0    10.5   222.8
   1991   9   19.7     9.8       0    73.0   195.0
   1991  10   13.2     7.2       0    28.5    90.0
   1991  11    9.4     2.9       4    43.2    68.0
   1991  12    7.3     1.6      10    23.0    56.1
   1992   1    5.6     0.6      16    61.5    61.2
   1992   2    8.7     2.1       7    21.3    76.5
   1992   3   10.3     3.6       0    58.4    91.2
   1992   4   12.4     5.0       2    25.1   133.9
   1992   5   18.6     8.2       0    34.4   260.7
   1992   6   20.8    11.1       0    24.9   192.7
   1992   7   20.4    12.5       0   108.8   174.9
   1992   8   19.9    11.6       0    70.7   194.1
   1992   9   16.9     9.7       0    65.7   126.2
   1992  10   10.5     4.7       0    70.0    92.5
   1992  11   10.2     3.3       3    59.7    65.5
   1992  12    5.7     0.2      14    36.7    43.2
   1993   1    8.5     1.9       7    45.4    44.4
   1993   2    6.9     2.1       4    12.1    47.5
   1993   3   10.2     2.3       7    13.1   119.7
   1993   4   12.7     5.8       1    69.9   106.2
   1993   5   15.4     7.1       0    43.2   205.3
   1993   6   19.3     9.9       0    58.2   194.9
   1993   7   19.4    11.0       0    53.8   200.3
   1993   8   19.1    10.2       0    45.8   194.4
   1993   9   15.6     9.0       0   101.9    85.1
   1993  10   11.4     5.1       3    76.2   111.0
   1993  11    6.8     2.4      10    60.7    39.2
   1993  12    7.4     2.3       7    74.5    55.7
   1994   1    7.2     2.1       5    70.0    70.4
   1994   2    5.4    -0.7      15    46.2    80.4
   1994   3   10.9     3.9       1    42.2   119.2
   1994   4   12.0     4.6       0    35.7   186.4
   1994   5   13.7     6.5       0    45.1   148.3
   1994   6   19.4    10.8       0     6.6   216.3
   1994   7   24.1    13.1       0    54.2   232.5
   1994   8   20.5    11.9       0    57.6   192.7
   1994   9   16.1     9.5       0   100.7   118.4
   1994  10   12.8     6.2       0    49.4    99.9
   1994  11   12.0     6.2       2    43.9    61.5
   1994  12    8.8     2.9       8    63.5    66.2
   1995   1    7.0     1.0      10    81.8    60.9
   1995   2    9.2     3.0       1    53.4    85.7
   1995   3    9.0     1.3       8    31.5   184.1
   1995   4   12.7     4.9       2    11.7   163.8
   1995   5   16.4     7.0       0    43.6   199.1
   1995   6   17.9     9.4       0    17.8   184.1
   1995   7   24.4    13.6       0    12.1   255.0
   1995   8   24.1    13.1       0     5.9   259.6
   1995   9   17.5    10.0       0    57.8   132.8
   1995  10   16.8     8.9       0    16.3   143.0
   1995  11   10.0     4.7       3    51.9    65.5
   1995  12    4.0    -0.1      16    57.4    48.4
   1996   1    4.9     1.5       9    34.5    19.6
   1996   2    5.1    -0.5      18    44.1    83.7
   1996   3    6.1     1.2       9    15.6    59.6
   1996   4   12.7     3.8       7    23.6   149.0
   1996   5   13.3     5.2       0    32.0   174.6
   1996   6   19.5     9.5       0    20.0   237.8
   1996   7   22.1    11.4       0    15.5   252.5
   1996   8   21.5    12.2       0    45.9   191.3
   1996   9   17.4     9.8       0     9.5   130.3
   1996  10   15.1     7.6       0    46.0   134.3
   1996  11    8.5     2.5      12    87.6    90.8
   1996  12    4.9     0.3      14    73.6    49.5
   1997   1    4.7    -0.8      18    12.3    39.7
   1997   2    9.7     3.4       1    26.7    83.2
   1997   3   12.1     4.4       1    13.9   138.7
   1997   4   13.0     4.7       1    23.6   140.9
   1997   5   16.2     6.6       1    49.3   262.0
   1997   6   17.6    10.2       0   136.3   150.8
   1997   7   21.2    12.1       0    62.4   214.7
   1997   8   24.0    14.4       0    95.8   207.6
   1997   9   17.7    10.1       0    25.6   151.3
   1997  10   13.5     6.3       3    47.3   118.7
   1997  11   10.6     5.5       0    59.6    39.2
   1997  12    7.8     3.1       3    51.9    45.2
   1998   1    7.5     1.9       7    74.2    57.5
   1998   2   10.8     4.0       4     9.3   112.7
   1998   3   11.1     4.4       1    56.8    77.4
   1998   4   11.2     4.8       2    81.3   123.2
   1998   5   16.9     8.1       0    17.2   203.3
   1998   6   18.1    10.6       0    96.2   146.4
   1998   7   19.6    11.6       0    15.1   154.8
   1998   8   20.7    11.4       0    42.2   205.6
   1998   9   18.0    10.8       0    58.4    97.2
   1998  10   13.4     7.3       0    81.6   102.0
   1998  11    8.2     2.2       6    42.4    71.2
   1998  12    7.9     1.9      11    55.4    45.2
   1999   1    8.1     2.2       6    78.7    76.9
   1999   2    8.0     2.0       7    17.0   100.5
   1999   3   10.8     4.0       2    80.6   118.5
   1999   4   13.5     5.6       2    74.4   182.0
   1999   5   17.3     8.6       0    24.8   192.3
   1999   6   18.0     9.6       0    58.1   190.4
   1999   7   22.3    12.9       0    37.7   248.5
   1999   8   20.3    12.3       0    75.0   148.6
   1999   9   20.4    11.7       0    52.3   167.0
   1999  10   14.0     7.5       0    94.1   125.2
   1999  11   10.1     4.7       0    38.5    75.2
   1999  12    6.9     1.4      10    44.3    71.1
   2000   1    7.8     1.7       7    13.0    88.7
   2000   2    9.0     2.5       4    43.6   102.3
   2000   3   10.9     3.6       4    14.3   131.8
   2000   4   11.7     4.2       0   124.2   147.3
   2000   5   15.9     7.6       0    90.0   203.3
   2000   6   18.9    10.8       0    30.7   168.9
   2000   7   18.6    11.3       0    39.9   123.9
   2000   8   21.7    12.6       0    39.2   205.4
   2000   9   18.6    11.3       0   109.4   112.0
   2000  10   13.3     7.3       0    83.1    97.5
   2000  11    9.5     3.7       2   115.1    68.2
   2000  12    7.2     2.6      10    63.8    56.5
   2001   1    5.3    -0.1      15    41.7    84.5
   2001   2    7.7     0.7      13    59.8    95.9
   2001   3    8.0     1.6       8    41.0    86.7
   2001   4   11.1     3.7       0    79.9   127.8
   2001   5   17.1     7.6       0    39.5   252.6
   2001   6   18.4     9.7       0    23.3   182.5
   2001   7   21.5    13.4       0    63.9   195.0
   2001   8   21.7    13.1       0    58.1   203.8
   2001   9   16.5     9.9       0    99.4   103.8
   2001  10   16.4    10.3       0    79.6   125.4
   2001  11   10.2     4.0       3    28.0    74.1
   2001  12    6.2     0.6      14    24.1    76.6
   2002   1    7.9     2.0       8    30.9    43.1
   2002   2   10.1     3.6       0    40.5    98.8
   2002   3   11.1     3.5       2    26.0   121.8
   2002   4   13.9     4.8       0    26.4   209.0
   2002   5   16.1     8.2       0    50.0   191.3
   2002   6   19.2    10.6       0    29.1   187.4
   2002   7   20.5    12.1       0   177.8   186.6
   2002   8   21.5    13.5       0    60.3   156.5
   2002   9   18.3    10.4       0    29.9   146.0
   2002  10   12.9     6.5       0    78.6    90.4
   2002  11   10.3     5.1       0    91.2    49.3
   2002  12    6.7     3.4       5    92.9    42.5
   2003   1    6.6     1.9      11    51.4    57.8
   2003   2    7.1     0.2      13    16.3   102.7
   2003   3   12.1     3.0       5    16.2   192.3
   2003   4   14.4     5.3       2    20.0   202.8
   2003   5   16.7     8.5       0    49.8   221.5
   2003   6   21.0    11.7       0    95.4   229.0
   2003   7   21.8    13.4       0    87.4   209.4
   2003   8   22.9    13.6       0    11.4   218.1
   2003   9   20.0     9.9       0    24.2   189.2
   2003  10   13.1     5.7       0    39.2   155.7
   2003  11   10.6     5.0       0    45.4    80.7
   2003  12    7.2     1.7      13    59.6    66.9
   2004   1    7.5     2.1       9    72.2    52.0
   2004   2    7.9     2.9      10    30.3    95.6
   2004   3    9.9     3.0       4    25.0   109.2
   2004   4   13.7     5.9       0    83.8   155.4
   2004   5   16.8     8.1       0    24.4   220.2
   2004   6   20.1    11.6       0    52.4   206.8
   2004   7   20.1    12.1       0    80.2   179.1
   2004   8   21.8    13.9       0   145.9   192.9
   2004   9   18.6    11.2       0    47.8   182.0
   2004  10   13.7     7.4       0   110.6   111.1
   2004  11   10.0     5.0       4    36.8    47.2
   2004  12    8.2     2.8       7    17.0    67.3
   2005   1    8.6     2.5       5    22.4    64.7
   2005   2    6.6     1.6      10    43.5    78.7
   2005   3   10.1     3.9       6    22.0    78.2
   2005   4   13.3     4.7       1    66.6   166.5
   2005   5   15.7     7.2       0    36.8   257.1
   2005   6   20.1    11.1       0    44.4   204.7
   2005   7   20.9    12.6       0    67.6   182.6
   2005   8   20.9    12.0       0    70.0   197.1
   2005   9   19.3    11.3       0    52.6   169.8
   2005  10   15.9     9.9       0    71.2    88.2
   2005  11    9.3     3.1       8    36.6   111.5
   2005  12    7.0     1.7       7    30.2    68.4
   2006   1    6.3     1.9       7    16.0    55.9
   2006   2    6.3     1.2       8    39.6    68.4
   2006   3    7.8     1.5      12    48.3   110.0
   2006   4   12.0     4.7       2    31.6   164.1
   2006   5   16.4     8.3       0    87.0   187.3
   2006   6   21.1    11.3       0    11.6   209.7
   2006   7   25.8    14.2       0    50.4   304.5
   2006   8   20.1    12.6       0    67.8   160.8
   2006   9   21.3    12.8       0    58.2   178.2
   2006  10   16.2     9.7       0    55.2    98.1
   2006  11   11.3     4.6       0    59.8   116.0
   2006  12    8.5     3.5       5    46.4    44.8
   2007   1    9.5     4.1       3    59.5    86.3
   2007   2    8.8     2.8       7    61.1    70.0
   2007   3   10.6     3.3       1    32.2   153.4
   2007   4   15.9     6.7       0     6.8   208.8
   2007   5   15.5     8.0       0   101.0   147.1#
   2007   6   19.0    11.0       0   200.6   170.4#
   2007   7   19.3    12.0       0   124.8   174.6#
   2007   8   20.6    11.8       0    40.3   214.6#
   2007   9   18.3    10.6       0    19.2   152.0#
   2007  10   14.5     7.9       0    36.8   128.5#
   2007  11   10.2     4.4       1    42.2    80.1#
   2007  12    7.3     2.4       9    47.2    48.6#
   2008   1    9.3     3.7       2    96.6    56.3#
   2008   2    9.1     1.2      10    17.2   132.9#
   2008   3    9.2     2.6       4    66.7   127.6#
   2008   4   11.7     4.1       1    50.0   147.4#
   2008   5   17.9     8.4       0    41.2   232.5#
   2008   6   18.6    10.5       0    54.2   197.3#
   2008   7   21.2    12.5       0   105.6   208.6#
   2008   8   20.7    13.5       0    61.8   133.2#
   2008   9   17.2    10.6       0    81.6   122.4#
   2008  10   13.4     6.9       2    43.6   140.4#
   2008  11    9.3     4.5       4    71.9    64.8#
   2008  12    5.7     1.1      11    34.6    75.8#
   2009   1    5.5     0.7      11    44.6    62.5#
   2009   2    6.4     1.6      13    49.0    67.4#
   2009   3   10.8     3.4       3    21.2   150.0#
   2009   4   14.4     5.5       0    19.6   167.6#
   2009   5   16.7     8.0       0    51.6   199.0#
   2009   6   19.4    10.2       0    29.5   188.9#
   2009   7   21.1    12.5       0    96.6   184.5#
   2009   8   21.6    12.9       0    64.0   177.1#
   2009   9   18.4    11.0       0    16.0   141.9#
   2009  10   14.6     8.1       0    46.4    88.4#
   2009  11   11.1     5.4       0    76.0    90.6#
   2009  12    5.3     0.6      12    44.1    92.9#
   2010   1    3.4    -0.7      17    50.2    58.6#
   2010   2    4.7    -0.3      15    66.6    46.9#
   2010   3   10.0     2.7       9    38.4   121.5#
   2010   4   13.8     4.8       0    30.8   187.0#
   2010   5   15.3     6.8       0    21.0   213.5#
   2010   6   20.2    10.7       0    58.2   224.1#
   2010   7   22.3    13.8       0    50.0   162.0#
   2010   8   19.7    11.9       0   113.8   148.4#
   2010   9   17.9    10.6       0    74.8   122.8#
   2010  10   13.7     7.2       0    45.9   110.4#
   2010  11    7.6     2.7       8    72.2    72.7#
   2010  12    1.9    -3.3      20    25.9    52.3#
   2011   1    6.2     1.2      11    29.1    54.8#
   2011   2    8.9     3.5       3    49.2    48.0#
   2011   3   10.7     3.0       5     5.8   118.6#
   2011   4   17.0     7.0       0    13.2   214.0#
   2011   5   17.2     8.0       0    25.6   201.0#
   2011   6   19.5     9.9       0    46.8   200.6#
   2011   7   20.4    11.3       0    54.0   156.7#
   2011   8   20.5    11.9       0    59.2   128.2#
   2011   9   20.0    11.5       0    21.0   146.9#
   2011  10   16.5     8.8       0    36.6   111.2#
   2011  11   11.6     6.0       1    20.6    45.2#
   2011  12    8.2     2.7       4    62.4    52.4#
   2012   1    8.3     2.6       7    45.6    67.6#
   2012   2    6.9     0.9      12    13.0    71.4#
   2012   3   12.8     3.7       1    25.0   173.4#
   2012   4   11.0     3.8       1   155.4    95.7#
   2012   5   15.8     7.6       1    35.8   174.8#
   2012   6   17.3    10.3       0   121.8   102.4#
   2012   7   19.7    12.2       0    69.8   148.3#
   2012   8   21.4    12.5       0    61.2   146.7#
   2012   9   17.7     9.2       0    48.4   156.1#
   2012  10   12.4     6.1       0    71.8    83.3#
   2012  11    9.2     3.6       4    83.8    63.1#
   2012  12    7.0     1.5       9    95.2    64.3#
   2013   1    5.4     0.5      16    35.1    47.1#
   2013   2    5.4     0.4      15    28.1    74.7#
   2013   3    4.8    -0.2      18    62.0    69.8#
   2013   4   12.2     3.5       7     7.4   168.0#
   2013   5   15.3     6.5       0    66.2   174.2#
   2013   6   17.9     9.9       0    45.4   160.3#
   2013   7   23.4    13.6       0    43.6   232.9#
   2013   8   22.3    13.1       0    35.7   182.0#
   2013   9   18.1    10.2       0    22.0   147.1#
   2013  10   15.6     9.6       0   105.7    87.6#
   2013  11    9.0     3.2       1    38.8    86.9#
   2013  12    9.2     2.3       3    27.6    67.9#
   2014   1    8.1     2.1       6    95.4    65.4#
   2014   2    9.1     2.7       3    32.0    88.7#
   2014   3   12.1     3.3       2    27.2   146.3#
   2014   4   14.3     6.4       0    23.4   127.9#
   2014   5   16.6     8.6       0   118.2   157.5#
   2014   6   19.4    11.4       0    33.8   162.7#
   2014   7   23.4    13.5       0    18.6   219.3#
   2014   8   20.0    11.5       0    61.6   171.9#
   2014   9   19.2    11.0       0     9.6    99.0#
   2014  10   15.3     9.4       0    88.8    79.2#
   2014  11   10.9     5.4       1    66.0    52.6#
   2014  12    7.7     2.4       9    49.8    80.8#
   2015   1    7.2     1.4      12    23.1    84.2#
   2015   2    6.9     1.1       7    23.5    95.1#
   2015   3   10.2     2.6       4    24.0   136.6#
   2015   4   14.1     4.7       0    14.2   216.2#
   2015   5   15.1     7.1       0    63.0   169.0#
   2015   6   19.1     9.7       0    35.0   209.0#
   2015   7   21.2    12.1       0    49.2   171.7#
   2015   8   21.3    12.6       0    79.2   154.0#
   2015   9   17.2     8.9       0    54.2   162.8#
   2015  10   14.3     7.9       0    48.2    89.4#
   2015  11   12.2     6.0       1    56.8    47.4#
   2015  12   12.2     6.2       0    60.8    41.9#
   2016   1    7.9     2.1       8    59.6    47.2#
   2016   2    8.2     1.7       9    44.8   110.2#
   2016   3    9.3     2.2       3    68.8   118.8#
   2016   4   11.8     3.4       1    51.6   158.6#
   2016   5   16.6     7.8       0    40.8   190.8#
   2016   6   18.7    11.2       0   120.0   106.8#
   2016   7   21.7    12.9       0    43.8   170.3#
   2016   8   22.0    13.3       0    46.0   208.3#
   2016   9   20.1    12.4       0    42.0   130.3#
   2016  10   14.2     7.8       0    49.8   104.1#
   2016  11    8.6     3.2       4    66.0    92.9#
   2016  12    8.6     2.6       5    19.4    55.7#
   2017   1    6.1     1.0      13    42.6    53.6#
   2017   2    8.5     3.3       3    41.6    52.8#
   2017   3   12.3     4.9       0    47.8   132.3#
   2017   4   13.5     4.8       1    21.2   156.5#
   2017   5   17.7     8.9       0    50.2   186.4#
   2017   6   20.6    12.8       0    80.0   157.8#
   2017   7   21.3    12.7       0    62.8   168.9#
   2017   8   20.4    12.1       0    53.8   179.1#
   2017   9   17.6    10.2       0    78.4   107.4#
   2017  10   15.5     9.6       0    12.8    79.7#
   2017  11    9.6     4.2       2    33.4    80.8#
   2017  12    7.2     2.0       9    58.8    71.6#
   2018   1    7.7     2.5       2    54.9    57.1#  Provisional
   2018   2    5.3    -0.4      18    31.6    81.1#  Provisional
   2018   3    8.0     1.6      10    74.3    77.6#  Provisional
   2018   4   13.3     6.2       0    79.8    98.5#  Provisional
   2018   5   18.5     8.2       0    61.0   255.8#  Provisional
   2018   6   20.8    11.3       0    34.0   216.3#  Provisional
   2018   7   25.4    14.1       0    24.9*  254.3#  Provisional
   2018   8   22.3    13.5       0    53.0   179.4#  Provisional