Yeovilton
Location: 355100E 123200N, Lat 51.006 Lon -2.641, 20 metres amsl
Estimated data is marked with a * after the value.
Missing data (more than 2 days missing in month) is marked by  ---.
Sunshine data taken from an automatic Kipp & Zonen sensor marked with a #, otherwise sunshine data taken from a Campbell Stokes recorder.
   yyyy  mm   tmax    tmin      af    rain     sun
              degC    degC    days      mm   hours
   1964   9   20.5     8.8       0    37.4     ---
   1964  10   13.6     4.2       5    77.8     ---
   1964  11   11.8     4.7       3    45.5     ---
   1964  12    7.7     0.1      17    65.1     ---
   1965   1    7.3     0.8      14    74.6     ---
   1965   2    6.5     0.1      13     3.3     ---
   1965   3   10.8     1.4      12    75.8     ---
   1965   4   13.2     3.5       6    32.4     ---
   1965   5   16.1     7.0       1    59.7     ---
   1965   6   19.0     9.2       0    41.6     ---
   1965   7   18.7    10.7       0   155.2     ---
   1965   8   19.9    10.9       0    89.3     ---
   1965   9   16.6     8.2       0    77.3     ---
   1965  10   16.0     7.3       1    16.8     ---
   1965  11    9.4     2.1      12    88.1     ---
   1965  12    9.7     1.7       8    94.1     ---
   1966   1    6.3     1.2      11    54.2     ---
   1966   2    9.8     4.8       0   100.4     ---
   1966   3   11.0     2.7       6    19.7     ---
   1966   4   12.1     4.9       1    95.0     ---
   1966   5   16.3     6.2       0    73.9     ---
   1966   6   20.1    10.4       0    49.1     ---
   1966   7   20.1    10.8       0    54.8     ---
   1966   8   20.1    10.7       0   106.6     ---
   1966   9   19.3     9.4       0    20.5     ---
   1966  10   14.9     6.4       2   126.8     ---
   1966  11    9.1     2.3       6    90.5     ---
   1966  12   10.4     2.6       7    83.7     ---
   1967   1    7.7     1.4      12    67.5     ---
   1967   2    9.8     1.7      11    78.7     ---
   1967   3   11.0     3.5       4    53.4     ---
   1967   4   12.9     4.1       4    16.8     ---
   1967   5   15.3     6.5       2   131.9     ---
   1967   6   20.1     9.3       0    23.7     ---
   1967   7   21.8    11.8       0    65.2     ---
   1967   8   20.6    11.0       0    42.3     ---
   1967   9   17.9    10.2       0    86.5     ---
   1967  10   14.8     8.2       0   133.1     ---
   1967  11    9.8     1.7      10    38.3     ---
   1967  12    8.4     1.6      13    53.8     ---
   1968   1    8.5     2.4       9    59.7     ---
   1968   2    5.9    -1.7      19    48.0     ---
   1968   3   10.8     1.9      10    23.2     ---
   1968   4   12.8     2.6       9    56.0     ---
   1968   5   15.0     5.6       0    51.3     ---
   1968   6   19.9    10.3       0    66.2     ---
   1968   7   20.5    10.5       0    89.1     ---
   1968   8   19.9    12.0       0    48.4     ---
   1968   9   18.5    10.4       0    98.3     ---
   1968  10   16.1    10.2       0    58.8     ---
   1968  11   10.2     4.4       5    55.0     ---
   1968  12    6.9     0.8      16    61.0     ---
   1969   1    9.7     3.4       6    74.0     ---
   1969   2    5.5    -1.1      15    93.9     ---
   1969   3    9.0     1.1       9    51.6     ---
   1969   4   13.4     3.4       5    36.8     ---
   1969   5   15.7     7.2       1    88.8     ---
   1969   6   19.7     9.1       0    30.4     ---
   1969   7   22.1    11.8       0    81.9     ---
   1969   8   20.6    12.1       0    45.1     ---
   1969   9   18.6    10.2       1    56.0     ---
   1969  10   17.1     8.6       1    10.4     ---
   1969  11   10.1     2.4       9   118.8     ---
   1969  12    7.3     0.2      15    68.3     ---
   1970   1    8.3     0.8      10   112.1     ---
   1970   2    7.7     0.2      13    54.8     ---
   1970   3    8.6     0.2      13    34.7     ---
   1970   4   11.3     2.7      10    46.3     ---
   1970   5   18.0     7.3       0    20.1     ---
   1970   6   21.8    10.9       0    42.3     ---
   1970   7   20.2    11.3       0    55.9     ---
   1970   8   20.9    11.2       0   100.1     ---
   1970   9   19.4    10.1       0    65.6     ---
   1970  10   15.2     7.0       2    17.0     ---
   1970  11   12.6     5.4       2   140.1     ---
   1970  12    7.5     1.1      15    36.1     ---
   1971   1    8.1     2.2       7   119.8     ---
   1971   2    8.9     0.1      13    27.9     ---
   1971   3    9.1     1.2      10    51.2     ---
   1971   4   12.8     3.8       2    63.0     ---
   1971   5   17.2     6.3       1    32.7     ---
   1971   6   17.3     8.6       0   112.4     ---
   1971   7   23.4    11.3       0    28.0     ---
   1971   8   20.2    11.9       0    88.2     ---
   1971   9   20.5     8.5       0     7.9     ---
   1971  10   17.1     7.1       1    49.6     ---
   1971  11   11.2     1.0      11    67.5     ---
   1971  12    9.5     4.2       4    44.5     ---
   1972   1    7.6     1.7       9    91.5     ---
   1972   2    8.3     2.1       4   108.5     ---
   1972   3   11.9     1.9       7    85.8     ---
   1972   4   13.1     4.2       4    53.5     ---
   1972   5   14.6     6.5       1    57.1     ---
   1972   6   15.8     7.2       0    78.5     ---
   1972   7   20.6    11.0       0    35.1     ---
   1972   8   20.6    10.3       0    41.4     ---
   1972   9   17.2     7.2       0    28.9     ---
   1972  10   15.1     6.6       4    36.8     ---
   1972  11   10.6     1.9      11    96.3     ---
   1972  12    9.9     2.4       8   125.4     ---
   1973   1    8.0     1.2      14    36.7     ---
   1973   2    8.5     0.9      11    29.5     ---
   1973   3   11.5    -0.2      19    19.3     ---
   1973   4   12.6     2.7       4    36.0     ---
   1973   5   16.0     7.2       1    65.9     ---
   1973   6   19.9     9.5       0    87.9     ---
   1973   7   20.0    11.3       0    99.4     ---
   1973   8   22.4    11.6       0    64.1     ---
   1973   9   19.9    10.0       0    66.2     ---
   1973  10   14.1     4.5       5    31.0     ---
   1973  11   11.1     2.8      11    34.9     ---
   1973  12    9.3     1.9      12    75.5     ---
   1974   1   10.1     3.4       3   123.3     ---
   1974   2    9.5     2.8       7    94.8     ---
   1974   3    9.8     1.8       9    33.0     ---
   1974   4   13.7     3.5       4     8.8     ---
   1974   5   15.6     6.5       1    58.4     ---
   1974   6   19.2     9.5       0    90.2     ---
   1974   7   19.9    11.5       0    23.5     ---
   1974   8   19.9     9.9       0   101.2     ---
   1974   9   16.4     8.0       0   160.6     ---
   1974  10   11.8     4.9       2    57.6     ---
   1974  11   11.1     4.6       0   105.1     ---
   1974  12   11.2     5.7       2    34.7     ---
   1975   1   10.6     3.9       3    94.6     ---
   1975   2    9.3     1.8       7    15.4     ---
   1975   3    8.7     2.4       6    82.4     ---
   1975   4   12.9     4.4       6    43.4     ---
   1975   5   15.5     6.5       0    30.9     ---
   1975   6   21.6     9.4       0     5.1     ---
   1975   7   23.0    12.6       0    99.9     ---
   1975   8   24.0    13.4       0    58.0     ---
   1975   9   18.2     8.7       0    83.7     ---
   1975  10   14.8     6.1       4    21.6     ---
   1975  11   10.9     2.7       7    58.5     ---
   1975  12    7.8     1.3      12    15.8     ---
   1976   1    9.1     2.7      10    10.8     ---
   1976   2    7.6     1.9      10    37.9     ---
   1976   3    9.6     0.7      13    56.3     ---
   1976   4   13.6     2.4       8     2.6     ---
   1976   5   16.9     6.6       1    22.4     ---
   1976   6   23.7    11.2       0     4.9     ---
   1976   7   24.8    12.4       0    19.7     ---
   1976   8   24.7    11.1       0    39.8     ---
   1976   9   17.9     9.6       0   150.8     ---
   1976  10   14.2     7.5       0   188.4     ---
   1976  11   10.5     2.5       8    73.2     ---
   1976  12    5.5    -0.9      15   108.3     ---
   1977   1    6.7     0.1      14    82.7     ---
   1977   2    9.7     3.1       7   110.9     ---
   1977   3   10.8     4.3       4    95.9     ---
   1977   4   11.7     3.0      11    25.3     ---
   1977   5   16.3     5.7       2    49.0     ---
   1977   6   16.6     8.5       0    74.4     ---
   1977   7   21.2    11.9       0    50.5     ---
   1977   8   20.0    11.2       0    86.5     ---
   1977   9   17.2     9.4       0    18.0     ---
   1977  10   16.1     8.3       0    26.7     ---
   1977  11   10.3     3.3       8    51.4     ---
   1977  12    9.7     3.7       2    88.3     ---
   1978   1    7.6     1.0      12    80.3     ---
   1978   2    6.2    -0.1      14   137.6     ---
   1978   3   10.9     2.9       7    61.8     ---
   1978   4   11.0     3.2       6    38.6     ---
   1978   5   17.2     6.6       0    40.6     ---
   1978   6   18.7     9.3       0    41.2     ---
   1978   7   19.0    11.3       0    87.4     ---
   1978   8   20.1    10.8       0    28.8     ---
   1978   9   19.1     8.9       0    16.6     ---
   1978  10   16.4     7.4       1     5.8     ---
   1978  11   12.7     4.6       5    32.6     ---
   1978  12    8.5     2.3      12   128.7     ---
   1979   1    4.7    -4.2      24    68.2     ---
   1979   2    5.4    -1.1      13    50.1     ---
   1979   3    9.0     1.9       8   104.0     ---
   1979   4   12.6     4.1       5    60.2     ---
   1979   5   14.0     5.1       4   171.3     ---
   1979   6   18.5     9.6       0    48.3     ---
   1979   7   21.6    11.6       0    39.0     ---
   1979   8   19.3    10.5       0    76.6     ---
   1979   9   18.1     8.5       0    20.7     ---
   1979  10   15.7     7.7       0    64.0     ---
   1979  11   11.4     3.3       9    47.6     ---
   1979  12    9.9     3.2       9   136.7     ---
   1980   1    5.9    -2.0      24    69.6     ---
   1980   2   10.1     3.2       4    86.7     ---
   1980   3    8.8     1.8       6   113.5     ---
   1980   4   13.9     4.1       6    28.0     ---
   1980   5   17.2     5.7       0    36.6     ---
   1980   6   18.4     9.5       0   139.8     ---
   1980   7   18.8    10.8       0    58.0     ---
   1980   8   20.6    11.7       0    29.4     ---
   1980   9   19.1    11.4       0    69.5     ---
   1980  10   13.5     5.1       3    69.6     ---
   1980  11    9.6     3.9       6    31.3     ---
   1980  12    9.7     2.4      10    47.2     ---
   1981   1    8.7     1.9      11    37.6     ---
   1981   2    7.0    -0.8      17    38.0     ---
   1981   3   11.6     6.0       3    75.3     ---
   1981   4   13.0     3.8       3    23.2     ---
   1981   5   15.0     7.5       1    78.0     ---
   1981   6   17.8     9.8       0    39.2     ---
   1981   7   20.6    12.0       0    50.0     ---
   1981   8   21.9    11.6       0    22.3     ---
   1981   9   19.5     9.9       0   115.8     ---
   1981  10   12.6     5.3       3    62.2     ---
   1981  11   11.8     4.0       7    39.2     ---
   1981  12    5.8    -1.2      16   147.5     ---
   1982   1    7.0     0.7      11    34.3     ---
   1982   2    8.9     2.5       6    42.0     ---
   1982   3   10.6     1.9      10    89.0     ---
   1982   4   14.2     3.4       4    18.5     ---
   1982   5   17.3     6.3       1    21.0     ---
   1982   6   20.9    11.2       0    97.4     ---
   1982   7   21.7    12.4       0    85.1     ---
   1982   8   20.2    11.9       0    46.7     ---
   1982   9   19.8    10.3       0    57.3     ---
   1982  10   14.1     6.9       1   106.0     ---
   1982  11   11.6     5.9       4   110.4     ---
   1982  12    8.8     1.0      12    82.4     ---
   1983   1   10.4     4.1       3    71.7     ---
   1983   2    5.8    -0.2      17    14.1     ---
   1983   3   10.4     2.7       8    42.5     ---
   1983   4   11.6     2.8       5    77.2     ---
   1983   5   14.4     6.7       0    82.9     ---
   1983   6   19.6    10.9       0    33.5     ---
   1983   7   26.6    13.9       0    14.4     ---
   1983   8   24.0    12.5       0    29.1     ---
   1983   9   18.4    10.6       0    65.9     ---
   1983  10   14.6     6.8       2    56.5     ---
   1983  11   11.5     4.5       6    19.7    44.3
   1983  12    9.9     2.3       9    69.8    64.9
   1984   1    8.8     1.1      11   118.6    64.8
   1984   2    7.8     1.0       7    35.7    64.1
   1984   3    8.8     1.3       6    44.2    78.2
   1984   4   14.7     2.5       9     1.6   241.8
   1984   5   15.2     5.9       1    62.6   178.8
   1984   6   21.0     9.9       0    22.6   271.7
   1984   7   23.3    11.1       0    23.1   268.5
   1984   8   23.1    12.7       0    30.2   179.3
   1984   9   18.4    10.4       0    55.1   128.5
   1984  10   15.4     8.0       1    41.0    85.9
   1984  11   11.6     4.7       4   110.9    63.1
   1984  12    9.6     1.8      10    66.6    55.9
   1985   1    4.1    -3.2      24    53.6    50.1
   1985   2    7.0    -0.7      16    47.3    79.5
   1985   3    9.4     0.6      12    38.8   118.6
   1985   4   13.4     4.1       3    45.1   139.6
   1985   5   16.1     6.4       0    43.2   197.2
   1985   6   18.0     8.8       0    64.0   172.8
   1985   7   21.4    11.1       0    41.5   208.1
   1985   8   18.8    11.3       0    76.1   166.6
   1985   9   19.5    10.0       0    21.3   134.1
   1985  10   14.8     7.0       2    31.7    94.2
   1985  11    8.4     1.2      11    39.5    83.7
   1985  12   10.3     4.5       4   129.1    40.2
   1986   1    8.0     1.3      11    98.6    51.3
   1986   2    2.5    -3.3      24     2.1    76.0
   1986   3    9.8     1.5       7    50.3   110.7
   1986   4   10.2     1.6       9    73.6   144.6
   1986   5   15.1     6.7       0    81.1   180.3
   1986   6   20.5    10.0       0    34.7   217.8
   1986   7   20.7    11.4       0    42.4   200.2
   1986   8   18.1    10.2       0    92.6   151.0
   1986   9   16.2     6.5       0    33.5   150.8
   1986  10   15.9     7.4       1    60.8   102.6
   1986  11   12.3     4.3       1    84.5    73.7
   1986  12   10.4     3.0      11   111.3    55.3
   1987   1    4.0    -1.9      19    12.7    65.7
   1987   2    7.9     0.3      12    55.1    63.5
   1987   3    8.8     1.3      13    57.2   114.6
   1987   4   15.1     5.2       2    63.7   185.0
   1987   5   15.8     5.9       0    28.9   207.2
   1987   6   17.4     9.2       0    67.2   140.4
   1987   7   21.2    11.6       0    32.5   202.5
   1987   8   21.3    11.0       0    29.4   198.9
   1987   9   18.6    10.1       0    42.7   123.8
   1987  10   14.5     6.0       4   133.3   105.6
   1987  11   10.5     3.9       4    60.1    62.6
   1987  12    8.8     3.1       8    37.1    38.0
   1988   1    9.2     2.8       6   107.7    54.2
   1988   2    9.0     0.5      13    56.0   114.2
   1988   3   10.4     3.6       5    69.0    96.5
   1988   4   13.3     3.5       6    22.2   167.8
   1988   5   17.4     7.1       0    38.3   219.6
   1988   6   20.0    10.3       0    31.9   168.6
   1988   7   18.3    11.2       0   132.7   144.2
   1988   8   19.6    10.8       0    64.8   170.0
   1988   9   17.7    10.2       0    25.4   156.4
   1988  10   15.0     7.9       1    77.6   106.7
   1988  11   10.3     0.9      19    24.8    89.5
   1988  12   10.7     4.5       4    17.5    34.7
   1989   1    9.9     2.8       8    38.0    59.1
   1989   2   10.4     2.7       9    78.5    98.7
   1989   3   12.0     4.4       3    58.7    98.1
   1989   4   11.1     2.4       7    60.9   154.2
   1989   5   19.9     8.5       0    25.2   245.4
   1989   6   20.8     9.4       0    22.3   213.4
   1989   7   24.4    13.2       0    73.7   266.2
   1989   8   22.4    11.4       0    40.5   264.0
   1989   9   19.7    10.9       0    52.7   124.3
   1989  10   16.2     8.5       0    75.6    88.4
   1989  11   10.8     3.3       8    48.0    73.3
   1989  12    9.1     2.5       5   166.1    34.6
   1990   1   10.7     4.3       4   103.9    52.0
   1990   2   11.5     5.4       0   133.0    95.1
   1990   3   12.6     4.5       4    25.6   150.3
   1990   4   13.7     3.0       5    30.5   229.2
   1990   5   19.5     7.1       0     5.7   273.6
   1990   6   17.9    10.0       0    49.3   115.7
   1990   7   23.8    12.2       0    22.1   268.6
   1990   8   23.7    12.0       0    46.8   191.8
   1990   9   18.7     8.4       0    49.4   183.5
   1990  10   15.9     9.5       0    43.0    98.3
   1990  11   10.7     4.0       9    41.7    59.0
   1990  12    7.8     1.0      14    63.3    40.7
   1991   1    7.2     0.8      12    86.0    74.4
   1991   2    5.4    -3.0      20    31.1    65.3
   1991   3   11.9     4.3       6    58.0    89.2
   1991   4   12.0     4.0       4    80.8   125.9
   1991   5   15.8     7.2       0    12.3   129.4
   1991   6   16.4     8.7       0    98.1   119.6
   1991   7   20.8    12.7       0    77.4   159.7
   1991   8   22.2    12.4       0    37.7   213.4
   1991   9   20.3    10.4       0    69.2   181.7
   1991  10   13.8     6.9       1    71.2    72.7
   1991  11   10.6     3.4       6    47.3    59.1
   1991  12    8.4     1.8      10    23.1    43.5
   1992   1    6.6     0.7      16    31.8    46.2
   1992   2    9.4     1.5       9    24.6    51.0
   1992   3   11.3     4.2       2    46.7    78.7
   1992   4   12.7     4.7       3    48.8   128.8
   1992   5   19.2     8.4       0    11.5   246.9
   1992   6   21.6    10.1       0    92.5   230.7
   1992   7   20.8    12.7       0    54.7   149.2
   1992   8   19.8    11.9       0   106.1   126.3
   1992   9   17.5    10.7       0   104.7   105.9
   1992  10   12.1     3.9       6    39.0    97.5
   1992  11   12.4     4.3       4    92.0    47.2
   1992  12    7.5     1.5      12    69.7    41.2
   1993   1   10.4     3.5       5   103.1    29.3
   1993   2    8.0     2.6       6     3.9    56.1
   1993   3   10.8     2.8       9    33.4   118.7
   1993   4   13.8     5.9       3    64.1    97.0
   1993   5   16.7     7.8       0    48.2   163.5
   1993   6   20.6    10.5       0    67.7   174.5
   1993   7   20.2    11.8       0    62.6   183.9
   1993   8   20.1    10.4       0    20.1   213.0
   1993   9   17.0     8.8       0   105.0   120.3
   1993  10   12.5     4.6       5   100.6   114.2
   1993  11    9.1     1.8       7    39.2    59.7
   1993  12    9.8     3.3       7   117.9    37.4
   1994   1    9.4     2.5      11    99.8    64.2
   1994   2    8.0     0.6      13    81.1    74.6
   1994   3   11.9     5.2       1    52.0   104.9
   1994   4   12.3     4.2       3    47.8   153.1
   1994   5   15.3     7.4       0    71.7   132.5
   1994   6   19.8     9.7       0    18.9   235.2
   1994   7   23.4    12.9       0    38.9   229.2
   1994   8   21.0    12.5       0    73.6   183.3
   1994   9   17.4     9.6       0    87.6   103.9
   1994  10   15.2     6.2       2    71.3   142.4
   1994  11   13.6     8.5       0    84.1    24.2
   1994  12   10.8     3.5       7    92.9    52.5
   1995   1    9.4     2.1       7   132.3    46.0
   1995   2   10.7     4.0       3    71.4    52.2
   1995   3   10.2     1.5      13    39.9   157.6
   1995   4   13.5     4.3       3    30.8   148.5
   1995   5   16.8     6.0       2    41.7   254.3
   1995   6   20.0     9.3       0    10.8   237.3
   1995   7   24.2    13.2       0    16.0   196.1
   1995   8   26.9    13.1       0    17.4   292.2
   1995   9   18.0     9.6       0    98.6   129.9
   1995  10   17.3     9.9       0    51.8   117.5
   1995  11   11.9     3.7       7    91.6    72.0
   1995  12    5.9     0.4      13    72.2    46.5
   1996   1    7.7     3.5       4    54.6    24.0
   1996   2    6.7    -0.6      19    69.0    83.8
   1996   3    8.8     1.6       9    53.9    69.0
   1996   4   13.0     4.4       5    45.0   138.3
   1996   5   14.0     4.9       4    41.6   174.4
   1996   6   20.0     8.7       0    34.8   254.6
   1996   7   22.4    11.4       0    17.2   235.6
   1996   8   22.0    11.3       0    56.0   228.0
   1996   9   18.8     9.1       0    18.6   156.0
   1996  10   15.7     8.9       0    50.4   105.0
   1996  11   10.5     2.4      12   106.0    80.1
   1996  12    5.9     0.3      13    14.4    40.1
   1997   1    5.6    -0.8      18     8.6    40.8
   1997   2   10.6     3.7       5    74.4    57.0
   1997   3   12.6     4.0       4    31.5   110.3
   1997   4   14.8     2.5       9    19.4   202.1
   1997   5   17.2     6.5       1    55.6   233.0
   1997   6   18.8    10.9       0    71.4   112.7
   1997   7   22.1    10.8       0    30.3   236.1
   1997   8   23.4    14.8       0   151.0   141.0
   1997   9   19.2     9.2       0    18.8   156.9
   1997  10   15.7     6.7       7    48.8   121.1
   1997  11   12.5     5.4       7   110.6    68.3
   1997  12    9.9     2.6      12    61.0    54.0
   1998   1    8.9     2.2      12    83.0    58.1
   1998   2   11.0     2.3       7     9.0    80.7
   1998   3   11.9     4.7       6    44.0    72.1
   1998   4   12.0     4.0       2   102.8   117.4
   1998   5   18.7     8.6       1    39.0   212.7
   1998   6   18.5    10.8       0    90.9   144.2
   1998   7   19.6    11.7       0    48.2   157.9
   1998   8   21.4    10.5       0    24.2   243.2
   1998   9   19.2    11.2       0    80.8   135.0
   1998  10   14.7     7.8       1   135.8    91.0
   1998  11   10.4     3.0      10    58.0    89.3
   1998  12    9.8     2.2       8    78.7    37.6
   1999   1    9.9     2.6       6    85.2    60.3
   1999   2    8.9     2.3       9    30.8    76.8
   1999   3   11.4     3.2       9    52.0   113.8
   1999   4   13.6     5.4       6    70.6   157.8
   1999   5   17.5     8.7       0    51.6   147.0
   1999   6   18.8     8.8       0    63.2   173.1
   1999   7   23.3    12.0       0    10.0   233.4
   1999   8   21.4    12.6       0   114.6   168.7
   1999   9   20.2    10.7       0   130.2   153.4
   1999  10   15.1     6.4       1    68.0   143.1
   1999  11   11.1     4.7       3    47.4    97.8
   1999  12    9.1     2.1      10   137.5    58.7
   2000   1    8.4     0.8      15    20.6    52.0
   2000   2   10.4     3.4       6    72.6    90.3
   2000   3   11.6     3.5       5    31.8   123.9
   2000   4   12.1     3.8       4   132.6   148.6
   2000   5   16.8     7.9       0    60.8   173.3
   2000   6   19.7    10.5       0    21.6   198.0
   2000   7   20.4    11.2       0    53.8   200.8
   2000   8   21.8    12.4       0    44.6   192.2
   2000   9   19.1    11.0       0    80.8   119.6
   2000  10   14.4     7.1       1   162.4    94.6
   2000  11   10.8     3.8       4   119.0    65.7
   2000  12    9.0     4.4       5   135.1    47.5
   2001   1    7.5     0.9      13    85.0    71.2
   2001   2    9.0     0.8      15    57.0    87.3
   2001   3    9.7     3.1       8    88.0    66.0
   2001   4   12.1     4.4       4    66.0   144.0
   2001   5   17.7     7.3       0    23.0   204.5
   2001   6   20.0     9.4       0    16.4   196.9
   2001   7   21.8    11.9       0    81.4   203.8
   2001   8   21.6    12.7       0    79.4   177.9
   2001   9   18.1     9.6       0    26.2   131.2
   2001  10   17.0    10.9       0   117.4   103.7
   2001  11   11.5     2.6       8    40.2    76.0
   2001  12    7.5    -0.5      23    25.8    94.6
   2002   1    9.8     3.1       7    66.2    35.5
   2002   2   10.9     4.3       5    74.0    77.3*
   2002   3   12.1     3.7       5    51.8   104.3
   2002   4   14.0     4.5       3    63.5   197.0
   2002   5   16.0     7.8       0    96.4   190.4
   2002   6   18.2    10.0       0    32.1   138.0
   2002   7   20.1    11.6       0    63.6   170.8
   2002   8   21.3    11.9       0    46.8   191.8
   2002   9   19.5     9.0       0    26.8   174.7
   2002  10   15.0     7.1       2   142.6   102.7
   2002  11   12.8     6.8       0   192.4    75.8
   2002  12    9.1     4.5       3   100.4    50.0
   2003   1    7.9     1.4      12    69.6    79.1
   2003   2    8.2     1.3      10    34.2    87.4
   2003   3   13.1     3.0       8    29.0   164.0
   2003   4   15.2     3.9       6    31.6   200.0
   2003   5   16.3     7.1       0    44.0   204.5
   2003   6   21.1    10.7       0    47.2   217.0
   2003   7   22.1    12.5*      0*   70.0   156.6#
   2003   8   24.6    13.1       0    11.6   191.7#
   2003   9   20.9     8.2       1     5.0   166.3#
   2003  10   14.5     4.6       6    48.6   128.3#
   2003  11   12.4     5.2       4    95.3    72.4#
   2003  12    9.5     2.5      12    56.8    55.2#
   2004   1    9.1     2.8       8   101.0    56.2#
   2004   2    8.6     2.1      10    42.4    83.0#
   2004   3   10.7     2.2       8    34.6    97.7#
   2004   4   13.7     4.9       2    59.0   142.1#
   2004   5   17.6     6.9       0    28.0   199.2#
   2004   6   20.7    10.7       0    35.8   219.0#
   2004   7   20.7    11.3       0    48.4   148.8#
   2004   8   22.3    12.9       0    95.5   177.2#
   2004   9   19.9    11.1       0    29.8   158.8#
   2004  10   14.7     7.4       0    88.4    92.5#
   2004  11   11.4     4.4       3    23.3    57.8#
   2004  12    9.2     2.3      10    60.4    50.7#
   2005   1    9.8     3.2       5    34.4    56.7#
   2005   2    7.8     1.3      12    23.2    75.4#
   2005   3   11.3     3.2      11    43.2    90.4#
   2005   4   13.7     4.7       3    85.6   143.1#
   2005   5   16.1     6.9       0    31.4   193.0#
   2005   6   21.2*   10.9*      0*  112.9*    ---
   2005   7   21.8    12.7       0    54.4   198.3#
   2005   8   21.9    10.4       0    41.9   229.6#
   2005   9   20.5    10.7       0    26.2   158.8#
   2005  10   17.0    10.3       0   109.1    91.1#
   2005  11   10.3     1.5      15    72.2    84.2#
   2005  12    8.3    -0.3      17    68.6    56.4#
   2006   1    7.6     1.4      11    16.2    62.2#
   2006   2    6.8     0.5      13    46.4    67.6#
   2006   3    9.3     2.2      11    38.3   100.0#
   2006   4   13.3     4.3       6    19.0   151.8#
   2006   5   16.8     8.1       0    74.7   147.8#
   2006   6   21.8    10.2       0    32.7   249.5#
   2006   7   26.0    13.3       0    29.9   292.2#
   2006   8   21.4    12.9       0    49.8   157.0#
   2006   9   21.6    12.4       0    53.1   136.1#
   2006  10   17.2    10.4       0   108.7    76.9#
   2006  11   12.5     4.1       7    90.4    92.0#
   2006  12    9.8     4.2       5    85.8    48.7#
   2007   1   10.7     4.9       5    58.0    53.6#
   2007   2   10.1     3.7       7    69.0    72.1#
   2007   3   12.0     3.0       6    48.6   171.6#
   2007   4   17.8     5.3       1     3.0   209.9#
   2007   5   17.3     8.1       0    88.8   168.3#
   2007   6   19.8    11.6       0   102.8   130.5#
   2007   7   19.4    11.6       0    98.8   166.8#
   2007   8   20.6    10.9       0    54.0   200.8#
   2007   9   18.9     9.0       0    34.0   147.6#
   2007  10   15.3     6.9       2    36.8   117.5#
   2007  11   11.7     3.1       7    67.8    85.8#
   2007  12    8.9     2.2      13    67.6    53.8#
   2008   1   10.6     3.9       3    92.8    50.6#
   2008   2   10.5    -0.1      16    26.8   131.1#
   2008   3   10.6     2.9       6    87.7   118.6#
   2008   4   13.0     3.7       6    49.6   170.3#
   2008   5   18.8     9.3       0    96.0   169.4#
   2008   6   19.2     9.6       0    26.8   213.4#
   2008   7   20.8    12.2       0    93.4   164.0#
   2008   8   19.6    13.4       0    61.0    86.1#
   2008   9   18.1     9.1       0    63.4   122.2#
   2008  10   14.4     5.9       2    82.8   122.3#
   2008  11   10.8     4.9       3    57.0    59.6#
   2008  12    7.4     0.2      18    70.3    88.2#
   2009   1    6.9    -0.3      17    74.2    68.2#
   2009   2    7.5     1.4      10    47.6    56.6#
   2009   3   11.9     1.9      10    32.6   172.4#
   2009   4   14.5     5.1       1    33.0   160.8#
   2009   5   17.1     7.1       0    30.1   204.4#
   2009   6   20.8    10.5       0    52.4   190.2#
   2009   7   20.1    12.5       0   111.2   131.7#
   2009   8   20.4    12.5       0    40.6   144.4#
   2009   9   19.0     9.7       0    14.2   155.8#
   2009  10   16.0     8.0       2    64.4    92.0#
   2009  11   12.4     7.0       0    94.8    65.8#
   2009  12    7.1    -0.2      18    82.6    72.0#
   2010   1    5.0    -2.5      18    49.8    67.4#
   2010   2    7.3     1.1       9    64.6    55.9#
   2010   3   10.5     1.5      15    41.6   127.1#
   2010   4   14.5     3.4       6    37.8   241.0#
   2010   5   16.4     5.9       2    41.8   180.7#
   2010   6   21.6     9.8       0    31.0   266.1#
   2010   7   22.5    13.0       0    22.4   176.0#
   2010   8   20.8    11.3       0    72.6   139.3#
   2010   9   19.1     9.2       0    55.0   148.0#
   2010  10   14.9     6.3       4    62.0   126.7#
   2010  11    9.6     2.5      10    66.6    74.6#
   2010  12    3.5    -4.5      26    29.9    30.0#
   2011   1    7.2     1.1      12    77.4    43.0#
   2011   2   10.7     3.9       4    38.0    58.4#
   2011   3   12.1     1.9      13    20.0   143.6#
   2011   4   17.9     5.7       0     5.8   228.3#
   2011   5   17.2     7.8       0    36.6   189.3#
   2011   6   18.9     9.7       0    71.0   173.4#
   2011   7   20.7    11.1       0    30.4   176.0#
   2011   8   20.1    11.6       0    70.2   127.2#
   2011   9   19.9    11.9       0    50.6   141.7#
   2011  10   17.3     8.9       1    49.4   120.7#
   2011  11   13.7     7.3       1    50.8    72.9#
   2011  12   10.4     3.7       5    88.6    39.6#
   2012   1    9.7     2.8      10    43.8    68.9#
   2012   2    8.3     0.8      12    18.0    79.2#
   2012   3   13.6     2.8       4    22.8   175.7#
   2012   4   12.1     2.8       8   136.6   128.3#
   2012   5   17.1     7.4       0    33.6   194.1#
   2012   6   17.7    11.0       0   118.2   107.1#
   2012   7   20.0    11.5       0    94.2   161.2#
   2012   8   20.7    13.6       0   105.8   139.6#
   2012   9   18.0     9.0       0    46.4   157.1#
   2012  10   14.0     7.2       2    93.6    76.1#
   2012  11   10.6     3.5       6   138.6    66.8#
   2012  12    9.7     2.7       7   135.0    67.7#
   2013   1    7.5     2.4      11    82.4    59.3#
   2013   2    6.8     0.7      12    31.8    56.7#
   2013   3    7.4     0.0      17    41.2    78.6*
   2013   4   12.1     3.4       8    18.6   169.6#
   2013   5   15.5     5.7       1    49.2   191.6#
   2013   6   19.0    10.0       0    25.7   173.0#
   2013   7   25.3    13.0       0    40.4   287.0#
   2013   8   22.4    12.3       0    15.2   162.2#
   2013   9   19.2    10.1       0    67.6    97.6#
   2013  10   16.5    10.0       0   115.8    97.8#
   2013  11   10.5     2.9       7    42.9    78.3#
   2013  12   10.7     2.7       5   121.4    57.6#
   2014   1   10.0     2.8       7   166.4    61.8#
   2014   2   10.0     3.8       1   131.2    95.0#
   2014   3   12.3     3.5       3    38.4   139.3#
   2014   4   14.7     5.7       0    62.2   142.8#
   2014   5   17.1     8.8       0    59.6   174.2#
   2014   6   20.7    11.1       0    79.0   219.8#
   2014   7   23.3    12.8       0    56.8   248.0#
   2014   8   19.8    11.0       0    74.6   169.7#
   2014   9   21.1    10.5       0     3.2   129.7#
   2014  10   16.6    10.1       0    99.8    93.8#
   2014  11   12.4     5.5       2   108.0    72.2#
   2014  12    9.6     1.6      12    34.8    72.3#
   2015   1    9.5     2.2       7    75.4    80.2#
   2015   2    8.0     0.2      13    41.8    85.4#
   2015   3   10.9     2.8       7    27.9   131.9#
   2015   4   15.5     4.2       4    25.8   211.4#
   2015   5   16.0     7.2       0    55.2   155.9#
   2015   6   20.1     9.5       0    23.8   216.5#
   2015   7   21.3    12.0       0    66.6   150.5#
   2015   8   20.2    11.5       0    95.6   118.2#
   2015   9   18.2     8.0       0    50.0   180.0#
   2015  10   15.4     7.2       1    58.6    86.6#
   2015  11   13.5     7.7       3    51.0    33.6#
   2015  12   13.5     8.8       0    65.4    39.4#
   2016   1   10.0     2.5       9    84.4    76.3#
   2016   2    9.4     2.0      11    80.4    95.4*
   2016   3   10.4     1.4      13    77.0    49.4#
   2016   4   12.8     3.4       6    45.2   162.9#
   2016   5   17.9     7.8       1    61.0   202.5#
   2016   6   19.4    11.7       0   111.0    94.8#
   2016   7   21.8    12.8       0     4.4   158.0#
   2016   8   22.8    12.5       0    35.2   209.7#
   2016   9   20.4    12.1       0    47.6   117.8#
   2016  10   15.2     6.0       1    35.6   116.3#
   2016  11   10.4     2.6       7    91.4    78.3#
   2016  12   10.0     2.7      11    17.2    42.3#
   2017   1    8.5     0.7      14    58.8    87.6#
   2017   2    9.9     3.8       7    42.6    52.5#
   2017   3   13.1     5.4       1    62.0    98.6#
   2017   4   14.6     3.8       2    12.2   175.0#
   2017   5   18.2     8.8       0    64.4   178.7#
   2017   6   21.2    11.7       0    60.6   173.8#
   2017   7   21.7    13.1       0    68.0   156.2#
   2017   8   20.7    11.6       0    41.8   155.3*
   2017   9   18.0    10.1       0    52.8   105.8#
   2017  10   16.5     9.6       1    35.0    90.1#
   2017  11   11.4     3.0       7    67.8    79.2#
   2017  12    9.8     2.2      12    81.4    58.2#
   2018   1   10.2     2.8       6    69.2    55.1#  Provisional
   2018   2    7.3    -0.1      15    28.0   129.3#  Provisional
   2018   3    9.3     2.1       9    86.6    82.6#  Provisional
   2018   4   14.2     7.2       0    58.4    99.1#  Provisional
   2018   5   19.0     7.4       0    45.4   221.6#  Provisional
   2018   6   22.8    11.6       0     5.6   248.3#  Provisional
   2018   7   25.9    13.5       0    13.8   242.3#  Provisional
   2018   8   22.7    12.8       0    53.8   138.5#  Provisional